
MINI_DATASET
0.008350
0.008631
0.008645
0.008648
0.009288
0.009004
0.009656
0.009684
0.009629
0.009743
SMALL_DATASET
0.023421
0.023303
0.021519
0.020862
0.021147
0.021180
0.020978
0.021058
0.022023
0.023954
STANDARD_DATASET
0.064137
0.064449
0.063098
0.062860
0.062865
0.066190
0.066633
0.069029
0.068365
0.066768
LARGE_DATASET
0.362334
0.347272
0.348031
0.346132
0.357260
0.363332
0.349842
0.361533
0.362970
0.365361
EXTRALARGE_DATASET
1.493063
1.473057
1.485490
1.471941
1.497619
1.468522
1.473572
1.486905
1.471037
1.474984
DATASET_EXT1
6.959397
6.976897
6.924002
6.968836
6.952026
6.932948
6.939818
6.931864
6.952146
6.951290
DATASET_EXT2
35.929530
35.918632
35.932361
35.890657
35.914791
35.859919
35.895454
35.915481
35.938910
35.860719
