MINI_DATASET, 0.002079, 0.002223, 0.002144, 0.002058, 0.002089, 0.002116, 0.002152, 0.001971, 0.002030, 0.002029
MINI_DATASET, 0.002065, 0.002003, 0.002158, 0.002006, 0.002090, 0.002030, 0.002155, 0.001963, 0.002135, 0.002054
MINI_DATASET, 0.002053, 0.001968, 0.002137, 0.001991, 0.001995, 0.002070, 0.002112, 0.002056, 0.001935, 0.002092
MINI_DATASET, 0.002009, 0.002009, 0.002008, 0.001984, 0.002095, 0.001978, 0.002012, 0.002138, 0.002086, 0.002101
MINI_DATASET, 0.001964, 0.001958, 0.002103, 0.002058, 0.002062, 0.001938, 0.002107, 0.002049, 0.002067, 0.002036
MINI_DATASET, 0.001898, 0.001908, 0.002031, 0.001867, 0.002036, 0.001991, 0.002080, 0.001949, 0.002052, 0.001947
MINI_DATASET, 0.002011, 0.001998, 0.001957, 0.002061, 0.002158, 0.001945, 0.002148, 0.001975, 0.002374, 0.002214
MINI_DATASET, 0.002044, 0.002011, 0.002002, 0.002061, 0.002186, 0.002657, 0.005440, 0.002146, 0.002064, 0.002112
MINI_DATASET, 0.002018, 0.002013, 0.002066, 0.001997, 0.002142, 0.002020, 0.002175, 0.001983, 0.002106, 0.002004
MINI_DATASET, 0.002002, 0.002028, 0.002011, 0.002005, 0.001933, 0.002536, 0.002163, 0.002136, 0.002013, 0.002085
SMALL_DATASET, 0.006899, 0.006925, 0.007042, 0.007026, 0.007479, 0.007061, 0.007429, 0.006993, 0.006950, 0.007001
SMALL_DATASET, 0.006767, 0.007022, 0.006892, 0.006843, 0.006906, 0.007307, 0.006946, 0.007617, 0.006957, 0.007294
SMALL_DATASET, 0.006864, 0.006937, 0.007242, 0.006865, 0.006947, 0.006981, 0.006831, 0.006991, 0.006750, 0.006912
SMALL_DATASET, 0.006873, 0.006826, 0.007511, 0.006845, 0.007019, 0.006871, 0.006906, 0.006880, 0.006912, 0.006849
SMALL_DATASET, 0.007887, 0.006965, 0.006898, 0.006932, 0.006945, 0.006911, 0.006959, 0.007030, 0.006922, 0.006990
SMALL_DATASET, 0.006804, 0.006796, 0.007016, 0.006939, 0.007043, 0.006860, 0.006971, 0.007677, 0.006734, 0.007590
SMALL_DATASET, 0.006943, 0.007345, 0.006903, 0.006937, 0.007027, 0.006971, 0.006982, 0.006924, 0.007103, 0.006978
SMALL_DATASET, 0.006985, 0.006900, 0.006936, 0.006962, 0.006837, 0.006935, 0.006934, 0.006886, 0.007004, 0.006830
SMALL_DATASET, 0.006972, 0.007005, 0.006887, 0.006936, 0.006923, 0.006915, 0.006952, 0.006894, 0.006982, 0.007254
SMALL_DATASET, 0.006894, 0.007156, 0.007040, 0.006937, 0.006984, 0.007063, 0.006866, 0.006841, 0.008261, 0.006958
STANDARD_DATASET, 0.030814, 0.030712, 0.032271, 0.030947, 0.031321, 0.031765, 0.032054, 0.031813, 0.032263, 0.032354
STANDARD_DATASET, 0.031179, 0.030721, 0.031470, 0.031741, 0.031919, 0.031589, 0.031790, 0.031646, 0.031855, 0.031524
STANDARD_DATASET, 0.030963, 0.030823, 0.032199, 0.032211, 0.031970, 0.031921, 0.031764, 0.032209, 0.032204, 0.031956
STANDARD_DATASET, 0.031269, 0.030697, 0.031901, 0.032330, 0.032340, 0.031714, 0.031187, 0.031297, 0.032016, 0.032374
STANDARD_DATASET, 0.031551, 0.031934, 0.032399, 0.030702, 0.030851, 0.032187, 0.032440, 0.032298, 0.032020, 0.032021
STANDARD_DATASET, 0.031454, 0.032038, 0.031057, 0.031728, 0.032121, 0.031815, 0.031649, 0.032663, 0.031050, 0.030981
STANDARD_DATASET, 0.031028, 0.030978, 0.032143, 0.032233, 0.032523, 0.032376, 0.032321, 0.032532, 0.032325, 0.032010
STANDARD_DATASET, 0.030754, 0.031786, 0.031825, 0.031580, 0.031403, 0.031092, 0.032107, 0.031770, 0.032096, 0.032247
STANDARD_DATASET, 0.030848, 0.031041, 0.030137, 0.032402, 0.031625, 0.032174, 0.031609, 0.032654, 0.031801, 0.031864
STANDARD_DATASET, 0.030813, 0.031503, 0.032099, 0.030974, 0.031020, 0.032225, 0.032578, 0.031730, 0.031985, 0.031647
LARGE_DATASET, 0.124331, 0.122593, 0.123719, 0.122592, 0.123128, 0.123298, 0.124283, 0.123688, 0.123116, 0.122451
LARGE_DATASET, 0.121937, 0.122044, 0.123344, 0.122940, 0.123730, 0.122047, 0.121596, 0.121200, 0.122544, 0.121351
LARGE_DATASET, 0.123350, 0.121853, 0.123736, 0.122349, 0.122491, 0.122993, 0.122382, 0.123102, 0.123243, 0.122322
LARGE_DATASET, 0.122021, 0.122400, 0.122803, 0.122739, 0.123493, 0.121346, 0.123266, 0.122611, 0.121057, 0.124165
LARGE_DATASET, 0.122534, 0.124909, 0.123134, 0.122670, 0.122047, 0.123892, 0.122917, 0.123227, 0.125188, 0.124173
LARGE_DATASET, 0.123121, 0.122244, 0.122843, 0.122409, 0.123673, 0.122645, 0.122353, 0.123447, 0.121426, 0.121970
LARGE_DATASET, 0.121361, 0.120285, 0.122180, 0.121810, 0.123676, 0.122994, 0.122998, 0.122459, 0.121747, 0.122727
LARGE_DATASET, 0.123364, 0.123572, 0.122568, 0.120382, 0.122732, 0.123043, 0.123270, 0.124221, 0.121454, 0.121832
LARGE_DATASET, 0.121837, 0.121503, 0.122632, 0.121941, 0.122838, 0.123472, 0.122443, 0.124156, 0.121448, 0.122194
LARGE_DATASET, 0.122434, 0.122483, 0.123401, 0.122108, 0.123132, 0.122486, 0.123254, 0.121521, 0.120435, 0.121671
EXTRALARGE_DATASET, 0.498023, 0.496689, 0.498603, 0.489874, 0.494459, 0.491659, 0.495736, 0.491145, 0.494115, 0.493979
EXTRALARGE_DATASET, 0.495126, 0.493629, 0.493333, 0.490234, 0.495832, 0.494433, 0.494375, 0.490039, 0.489635, 0.494040
EXTRALARGE_DATASET, 0.497037, 0.494017, 0.493267, 0.497507, 0.489667, 0.496610, 0.492171, 0.498132, 0.491193, 0.497597
EXTRALARGE_DATASET, 0.495944, 0.493377, 0.494583, 0.500369, 0.494247, 0.497851, 0.501866, 0.495033, 0.495839, 0.495749
EXTRALARGE_DATASET, 0.492420, 0.491288, 0.495074, 0.494403, 0.495497, 0.491406, 0.489325, 0.497047, 0.486416, 0.497295
EXTRALARGE_DATASET, 0.498975, 0.501253, 0.489465, 0.494483, 0.490885, 0.498361, 0.496966, 0.490210, 0.495751, 0.495298
EXTRALARGE_DATASET, 0.497046, 0.493952, 0.490911, 0.493265, 0.491051, 0.491523, 0.498734, 0.494062, 0.493110, 0.492533
EXTRALARGE_DATASET, 0.493417, 0.493680, 0.504827, 0.493935, 0.490942, 0.489281, 0.502310, 0.492951, 0.489044, 0.496430
EXTRALARGE_DATASET, 0.491466, 0.492368, 0.493075, 0.492617, 0.490841, 0.492685, 0.495602, 0.488538, 0.488949, 0.487209
EXTRALARGE_DATASET, 0.495562, 0.494046, 0.487912, 0.491309, 0.490603, 0.491568, 0.491385, 0.495579, 0.489930, 0.490590
