MINI_DATASET, 0.008442, 0.008285, 0.007770, 0.007872, 0.008046, 0.007410, 0.007410, 0.007516, 0.007515, 0.007516
MINI_DATASET, 0.008625, 0.008688, 0.008621, 0.007347, 0.007223, 0.007363, 0.007476, 0.007563, 0.007536, 0.007295
MINI_DATASET, 0.008584, 0.007949, 0.007102, 0.007233, 0.007340, 0.007370, 0.007254, 0.007116, 0.007298, 0.007326
MINI_DATASET, 0.008398, 0.007829, 0.007064, 0.006961, 0.006932, 0.006623, 0.006525, 0.006988, 0.006567, 0.006484
MINI_DATASET, 0.008235, 0.008309, 0.007667, 0.007235, 0.007056, 0.006933, 0.006844, 0.006997, 0.006956, 0.007191
MINI_DATASET, 0.008307, 0.008444, 0.007621, 0.007496, 0.007198, 0.006938, 0.006907, 0.006920, 0.006884, 0.007344
MINI_DATASET, 0.008650, 0.008192, 0.007843, 0.007686, 0.007576, 0.007431, 0.007427, 0.007396, 0.007258, 0.007475
MINI_DATASET, 0.008332, 0.008527, 0.007428, 0.007008, 0.007809, 0.007491, 0.007361, 0.007451, 0.007530, 0.007504
MINI_DATASET, 0.008219, 0.007571, 0.006819, 0.007675, 0.006999, 0.006951, 0.006834, 0.006836, 0.006837, 0.006695
MINI_DATASET, 0.008420, 0.007695, 0.007827, 0.007710, 0.007592, 0.007335, 0.007435, 0.007472, 0.008287, 0.007564
SMALL_DATASET, 0.020055, 0.020011, 0.019831, 0.019675, 0.024911, 0.023457, 0.022724, 0.022322, 0.022227, 0.021887
SMALL_DATASET, 0.019639, 0.019835, 0.024749, 0.022309, 0.022005, 0.021892, 0.021853, 0.021915, 0.021880, 0.021856
SMALL_DATASET, 0.019607, 0.019670, 0.024502, 0.022531, 0.023052, 0.021948, 0.021703, 0.021782, 0.021665, 0.021805
SMALL_DATASET, 0.023942, 0.022923, 0.022582, 0.021870, 0.021922, 0.021737, 0.021725, 0.021510, 0.021626, 0.021515
SMALL_DATASET, 0.019755, 0.019481, 0.024954, 0.022584, 0.021722, 0.021707, 0.021816, 0.021563, 0.021763, 0.021469
SMALL_DATASET, 0.020938, 0.019896, 0.024377, 0.021756, 0.023115, 0.022048, 0.021477, 0.021523, 0.021355, 0.021415
SMALL_DATASET, 0.023694, 0.022530, 0.022347, 0.021551, 0.021453, 0.021405, 0.021443, 0.021419, 0.021495, 0.021406
SMALL_DATASET, 0.019938, 0.020371, 0.024803, 0.022069, 0.021669, 0.021615, 0.021633, 0.021374, 0.021422, 0.021462
SMALL_DATASET, 0.023812, 0.022598, 0.022336, 0.021568, 0.021613, 0.021229, 0.021395, 0.021278, 0.021142, 0.021254
SMALL_DATASET, 0.020175, 0.024249, 0.023201, 0.021684, 0.021612, 0.022108, 0.021534, 0.021456, 0.021552, 0.021655
STANDARD_DATASET, 0.056258, 0.056022, 0.055823, 0.055886, 0.055846, 0.056144, 0.057282, 0.055836, 0.055882, 0.055870
STANDARD_DATASET, 0.065429, 0.063599, 0.061385, 0.061254, 0.060604, 0.060594, 0.060476, 0.060318, 0.060030, 0.060364
STANDARD_DATASET, 0.065313, 0.064035, 0.061325, 0.060324, 0.060247, 0.059976, 0.059745, 0.059689, 0.060747, 0.060096
STANDARD_DATASET, 0.056511, 0.056398, 0.056113, 0.057221, 0.056006, 0.056098, 0.056119, 0.055746, 0.055811, 0.055811
STANDARD_DATASET, 0.057164, 0.056844, 0.057095, 0.058425, 0.056947, 0.056898, 0.056919, 0.056681, 0.057064, 0.056849
STANDARD_DATASET, 0.063005, 0.061240, 0.060307, 0.060230, 0.060004, 0.060288, 0.059901, 0.059892, 0.059313, 0.060186
STANDARD_DATASET, 0.062756, 0.061034, 0.060140, 0.060279, 0.060151, 0.060384, 0.061143, 0.060064, 0.060909, 0.060277
STANDARD_DATASET, 0.063210, 0.061101, 0.060072, 0.060209, 0.060097, 0.059813, 0.059594, 0.059821, 0.059814, 0.059830
STANDARD_DATASET, 0.058053, 0.056726, 0.056664, 0.056963, 0.056802, 0.056468, 0.056853, 0.056275, 0.056564, 0.056521
STANDARD_DATASET, 0.057770, 0.056186, 0.056060, 0.056034, 0.055967, 0.056012, 0.058060, 0.057754, 0.056797, 0.056034
LARGE_DATASET, 0.319406, 0.321749, 0.320069, 0.319019, 0.318487, 0.319398, 0.319008, 0.317563, 0.319433, 0.319007
LARGE_DATASET, 0.319244, 0.318488, 0.318847, 0.320728, 0.319003, 0.319445, 0.318569, 0.318794, 0.319380, 0.320091
LARGE_DATASET, 0.321651, 0.317444, 0.318008, 0.319622, 0.318361, 0.317526, 0.319164, 0.318962, 0.317637, 0.319295
LARGE_DATASET, 0.319688, 0.318319, 0.318813, 0.319650, 0.319040, 0.318181, 0.318993, 0.320184, 0.318783, 0.318357
LARGE_DATASET, 0.320946, 0.319631, 0.317888, 0.319795, 0.320912, 0.318929, 0.318902, 0.319079, 0.319179, 0.318571
LARGE_DATASET, 0.320272, 0.320543, 0.319851, 0.319542, 0.319897, 0.320098, 0.318151, 0.318669, 0.319891, 0.318506
LARGE_DATASET, 0.318645, 0.319964, 0.319916, 0.318579, 0.319754, 0.319091, 0.318347, 0.318867, 0.318936, 0.319217
LARGE_DATASET, 0.318841, 0.318786, 0.319457, 0.318427, 0.318241, 0.320911, 0.319992, 0.318370, 0.319892, 0.319482
LARGE_DATASET, 0.318958, 0.317784, 0.319444, 0.321484, 0.319027, 0.319006, 0.318505, 0.318731, 0.317847, 0.318674
LARGE_DATASET, 0.330383, 0.318512, 0.319453, 0.320421, 0.319260, 0.318701, 0.320671, 0.319731, 0.318485, 0.319836
EXTRALARGE_DATASET, 1.345964, 1.345103, 1.342911, 1.344386, 1.345681, 1.345442, 1.349014, 1.343836, 1.344755, 1.345026
EXTRALARGE_DATASET, 1.343857, 1.342666, 1.343542, 1.345074, 1.343833, 1.346148, 1.342736, 1.342103, 1.342074, 1.341409
EXTRALARGE_DATASET, 1.346972, 1.345643, 1.344036, 1.343717, 1.346863, 1.345651, 1.345531, 1.344381, 1.344414, 1.345508
EXTRALARGE_DATASET, 1.348079, 1.345463, 1.347275, 1.346288, 1.345110, 1.347593, 1.345150, 1.345752, 1.346033, 1.346418
EXTRALARGE_DATASET, 1.343393, 1.342348, 1.342284, 1.345897, 1.343242, 1.341352, 1.343315, 1.343425, 1.341830, 1.343336
EXTRALARGE_DATASET, 1.343626, 1.341918, 1.350485, 1.341538, 1.340258, 1.340490, 1.342920, 1.339742, 1.339858, 1.341575
EXTRALARGE_DATASET, 1.347260, 1.343467, 1.345605, 1.343540, 1.344728, 1.344921, 1.343465, 1.344607, 1.344043, 1.344261
EXTRALARGE_DATASET, 1.345245, 1.342490, 1.342868, 1.342159, 1.345473, 1.343009, 1.343012, 1.343138, 1.344074, 1.343623
EXTRALARGE_DATASET, 1.347079, 1.347306, 1.348326, 1.353579, 1.344627, 1.345412, 1.348530, 1.345207, 1.345345, 1.346109
EXTRALARGE_DATASET, 1.347708, 1.346466, 1.343463, 1.344400, 1.345071, 1.344565, 1.346484, 1.345149, 1.344381, 1.342450
