MINI_DATASET, 0.001329, 0.001272, 0.001628, 0.001403, 0.001413, 0.001451, 0.001349, 0.001401, 0.001356, 0.001343
MINI_DATASET, 0.001302, 0.001284, 0.001615, 0.001354, 0.001365, 0.001369, 0.001350, 0.001321, 0.001349, 0.001339
MINI_DATASET, 0.001303, 0.001268, 0.001610, 0.001366, 0.001351, 0.001357, 0.001352, 0.001335, 0.001352, 0.001346
MINI_DATASET, 0.001293, 0.001324, 0.001647, 0.001376, 0.001341, 0.001359, 0.001419, 0.001353, 0.001353, 0.001376
MINI_DATASET, 0.001294, 0.001325, 0.001606, 0.001355, 0.001343, 0.001377, 0.001363, 0.001441, 0.001349, 0.001359
MINI_DATASET, 0.001307, 0.001635, 0.001413, 0.001331, 0.001353, 0.001371, 0.001361, 0.001434, 0.001389, 0.001418
MINI_DATASET, 0.001315, 0.001287, 0.001645, 0.001369, 0.001347, 0.001346, 0.001367, 0.001351, 0.001349, 0.001363
MINI_DATASET, 0.001378, 0.001605, 0.001359, 0.001368, 0.001525, 0.001348, 0.001339, 0.001340, 0.001349, 0.001341
MINI_DATASET, 0.001283, 0.001300, 0.001635, 0.001352, 0.001410, 0.001375, 0.001348, 0.001365, 0.001387, 0.001344
MINI_DATASET, 0.001318, 0.001628, 0.001521, 0.001473, 0.001409, 0.001382, 0.001379, 0.001360, 0.001387, 0.001395
SMALL_DATASET, 0.003942, 0.003912, 0.004136, 0.004059, 0.003992, 0.004004, 0.004054, 0.004004, 0.003967, 0.003990
SMALL_DATASET, 0.004087, 0.003987, 0.004011, 0.004137, 0.004017, 0.003972, 0.004394, 0.004061, 0.004021, 0.004015
SMALL_DATASET, 0.003936, 0.003926, 0.003918, 0.003921, 0.003916, 0.004151, 0.004026, 0.004090, 0.004020, 0.003989
SMALL_DATASET, 0.004189, 0.004011, 0.004028, 0.003970, 0.004054, 0.003962, 0.003976, 0.003956, 0.003967, 0.004003
SMALL_DATASET, 0.003943, 0.003916, 0.003939, 0.004004, 0.003956, 0.004152, 0.004024, 0.004002, 0.003984, 0.003974
SMALL_DATASET, 0.003963, 0.003938, 0.004162, 0.004030, 0.003976, 0.004022, 0.003954, 0.003984, 0.003963, 0.004014
SMALL_DATASET, 0.004034, 0.003933, 0.003933, 0.003926, 0.004288, 0.003985, 0.004009, 0.003979, 0.003988, 0.003979
SMALL_DATASET, 0.004029, 0.003956, 0.003940, 0.004195, 0.004048, 0.004037, 0.003976, 0.003991, 0.004023, 0.004028
SMALL_DATASET, 0.004195, 0.003981, 0.004034, 0.003965, 0.003982, 0.004000, 0.003928, 0.004039, 0.003990, 0.004012
SMALL_DATASET, 0.003935, 0.003919, 0.004182, 0.004027, 0.004036, 0.003982, 0.004041, 0.003964, 0.003992, 0.004008
STANDARD_DATASET, 0.025918, 0.025958, 0.025903, 0.026154, 0.026031, 0.026015, 0.025956, 0.025989, 0.025943, 0.025939
STANDARD_DATASET, 0.025879, 0.027012, 0.025873, 0.026147, 0.025857, 0.026063, 0.025876, 0.025940, 0.025808, 0.025922
STANDARD_DATASET, 0.026036, 0.026253, 0.025933, 0.025830, 0.026144, 0.026223, 0.026129, 0.025917, 0.026080, 0.026182
STANDARD_DATASET, 0.025823, 0.025881, 0.025973, 0.025890, 0.025956, 0.025952, 0.025817, 0.026160, 0.025813, 0.025920
STANDARD_DATASET, 0.025931, 0.025808, 0.025907, 0.025963, 0.025830, 0.025895, 0.025962, 0.025782, 0.025983, 0.026103
STANDARD_DATASET, 0.025940, 0.026066, 0.025916, 0.025872, 0.026071, 0.027026, 0.025930, 0.026115, 0.025992, 0.025889
STANDARD_DATASET, 0.026094, 0.025953, 0.025920, 0.026094, 0.026058, 0.026078, 0.025836, 0.026071, 0.025992, 0.026085
STANDARD_DATASET, 0.026134, 0.025961, 0.025870, 0.026818, 0.025933, 0.025947, 0.025949, 0.026171, 0.025988, 0.025897
STANDARD_DATASET, 0.025962, 0.026424, 0.026056, 0.025770, 0.026017, 0.026020, 0.025906, 0.025989, 0.025859, 0.025996
STANDARD_DATASET, 0.025898, 0.025993, 0.025765, 0.025829, 0.026087, 0.025960, 0.025816, 0.026077, 0.025907, 0.026868
LARGE_DATASET, 0.134808, 0.134535, 0.135093, 0.134460, 0.135971, 0.135230, 0.134331, 0.136570, 0.135718, 0.136009
LARGE_DATASET, 0.135444, 0.135995, 0.135385, 0.134051, 0.136512, 0.134685, 0.136314, 0.135631, 0.134382, 0.134769
LARGE_DATASET, 0.135878, 0.135534, 0.136242, 0.133794, 0.133688, 0.136836, 0.135614, 0.135987, 0.133911, 0.134443
LARGE_DATASET, 0.135543, 0.136650, 0.135101, 0.136285, 0.134830, 0.135494, 0.135693, 0.133878, 0.136215, 0.135211
LARGE_DATASET, 0.135303, 0.136281, 0.135150, 0.134119, 0.134215, 0.134591, 0.135386, 0.136854, 0.135529, 0.134267
LARGE_DATASET, 0.134765, 0.134319, 0.136403, 0.135492, 0.134293, 0.135661, 0.135340, 0.135073, 0.135756, 0.135381
LARGE_DATASET, 0.136205, 0.133596, 0.136842, 0.134448, 0.135075, 0.134913, 0.132692, 0.135589, 0.135952, 0.135204
LARGE_DATASET, 0.136680, 0.136019, 0.135689, 0.135963, 0.137144, 0.136017, 0.134660, 0.134108, 0.136494, 0.134521
LARGE_DATASET, 0.135769, 0.136664, 0.135060, 0.136670, 0.136798, 0.136909, 0.134077, 0.134408, 0.134175, 0.135936
LARGE_DATASET, 0.137465, 0.134604, 0.134133, 0.135347, 0.136236, 0.136264, 0.135331, 0.134765, 0.136420, 0.135389
EXTRALARGE_DATASET, 0.666705, 0.665063, 0.675408, 0.679214, 0.668703, 0.666344, 0.674117, 0.662720, 0.671976, 0.682153
EXTRALARGE_DATASET, 0.666793, 0.663228, 0.669681, 0.658906, 0.669168, 0.670396, 0.671071, 0.672012, 0.659420, 0.667433
EXTRALARGE_DATASET, 0.671691, 0.665564, 0.667756, 0.666034, 0.661620, 0.671285, 0.664607, 0.666575, 0.668969, 0.673367
EXTRALARGE_DATASET, 0.667251, 0.665313, 0.664985, 0.676920, 0.651659, 0.661662, 0.659610, 0.669493, 0.676909, 0.680461
EXTRALARGE_DATASET, 0.671890, 0.672680, 0.676680, 0.663038, 0.677101, 0.666622, 0.674006, 0.656895, 0.676733, 0.675669
EXTRALARGE_DATASET, 0.677057, 0.653724, 0.677566, 0.673873, 0.678985, 0.662455, 0.669409, 0.679079, 0.682250, 0.677820
EXTRALARGE_DATASET, 0.676534, 0.663115, 0.673046, 0.664501, 0.658941, 0.652490, 0.682293, 0.660755, 0.676834, 0.654726
EXTRALARGE_DATASET, 0.669501, 0.665304, 0.658541, 0.661861, 0.657259, 0.666614, 0.675672, 0.664496, 0.665386, 0.674500
EXTRALARGE_DATASET, 0.678056, 0.681797, 0.672131, 0.668550, 0.672319, 0.668611, 0.673011, 0.675756, 0.676926, 0.676214
EXTRALARGE_DATASET, 0.684180, 0.672655, 0.674851, 0.669276, 0.679454, 0.676010, 0.660823, 0.661213, 0.667725, 0.666358
