MINI_DATASET, 0.001641, 0.001629, 0.001542, 0.001501, 0.001513, 0.001553, 0.001558, 0.001538, 0.001669, 0.001513
MINI_DATASET, 0.001630, 0.001712, 0.001801, 0.001523, 0.001632, 0.001503, 0.001529, 0.001518, 0.001710, 0.001501
MINI_DATASET, 0.001728, 0.001686, 0.001624, 0.001747, 0.001564, 0.001509, 0.001501, 0.001510, 0.001665, 0.001508
MINI_DATASET, 0.001731, 0.001500, 0.001601, 0.001500, 0.001544, 0.001535, 0.001549, 0.001539, 0.001573, 0.001508
MINI_DATASET, 0.001664, 0.005219, 0.001606, 0.001520, 0.001517, 0.001519, 0.001551, 0.001617, 0.001507, 0.001703
MINI_DATASET, 0.001643, 0.001546, 0.001642, 0.001570, 0.001660, 0.001520, 0.001712, 0.001509, 0.001540, 0.001615
MINI_DATASET, 0.001580, 0.001644, 0.001607, 0.001665, 0.001662, 0.001628, 0.001604, 0.001576, 0.001619, 0.001594
MINI_DATASET, 0.001692, 0.001543, 0.001541, 0.001505, 0.001556, 0.001513, 0.001564, 0.001518, 0.001509, 0.001531
MINI_DATASET, 0.001678, 0.001670, 0.001636, 0.001586, 0.001722, 0.001688, 0.001633, 0.001568, 0.001609, 0.001719
MINI_DATASET, 0.001790, 0.001693, 0.001632, 0.001711, 0.001599, 0.001619, 0.001556, 0.001536, 0.001534, 0.001585
SMALL_DATASET, 0.004542, 0.004541, 0.004481, 0.004466, 0.004689, 0.004461, 0.004671, 0.004474, 0.004463, 0.004462
SMALL_DATASET, 0.004529, 0.004687, 0.004534, 0.004484, 0.004534, 0.004487, 0.004471, 0.004546, 0.004481, 0.004475
SMALL_DATASET, 0.004534, 0.004488, 0.004467, 0.004565, 0.004488, 0.004509, 0.004532, 0.004545, 0.004656, 0.004493
SMALL_DATASET, 0.004603, 0.004494, 0.004641, 0.004478, 0.004507, 0.004518, 0.004498, 0.004497, 0.004673, 0.004476
SMALL_DATASET, 0.004569, 0.004522, 0.004702, 0.004475, 0.004487, 0.004535, 0.004464, 0.004491, 0.004467, 0.004447
SMALL_DATASET, 0.004556, 0.004457, 0.004491, 0.004485, 0.004692, 0.004538, 0.004685, 0.004481, 0.004721, 0.004697
SMALL_DATASET, 0.004597, 0.004512, 0.004531, 0.004660, 0.004473, 0.004479, 0.004624, 0.004522, 0.004487, 0.004481
SMALL_DATASET, 0.004500, 0.004489, 0.004556, 0.004455, 0.004491, 0.004535, 0.004471, 0.004507, 0.004517, 0.004652
SMALL_DATASET, 0.004530, 0.004525, 0.004486, 0.004465, 0.004496, 0.004525, 0.004509, 0.004513, 0.004529, 0.004457
SMALL_DATASET, 0.004473, 0.004514, 0.004516, 0.004498, 0.004457, 0.004679, 0.004485, 0.004448, 0.004502, 0.004504
STANDARD_DATASET, 0.027247, 0.026602, 0.028000, 0.026842, 0.028338, 0.026762, 0.028101, 0.026376, 0.026788, 0.028238
STANDARD_DATASET, 0.028335, 0.027813, 0.027996, 0.028015, 0.028099, 0.028075, 0.028117, 0.027893, 0.028255, 0.027982
STANDARD_DATASET, 0.028186, 0.025153, 0.028078, 0.028139, 0.028003, 0.028005, 0.026239, 0.028134, 0.026846, 0.028059
STANDARD_DATASET, 0.028100, 0.028053, 0.026270, 0.027979, 0.028152, 0.027914, 0.027998, 0.026876, 0.028011, 0.028078
STANDARD_DATASET, 0.027971, 0.026273, 0.028166, 0.028026, 0.028238, 0.026048, 0.028257, 0.028213, 0.028174, 0.025871
STANDARD_DATASET, 0.028056, 0.027785, 0.028029, 0.027970, 0.027820, 0.027975, 0.028139, 0.028210, 0.027848, 0.028021
STANDARD_DATASET, 0.027103, 0.028127, 0.028251, 0.027012, 0.028111, 0.026997, 0.028254, 0.028125, 0.027955, 0.028200
STANDARD_DATASET, 0.027881, 0.028130, 0.028189, 0.028055, 0.028059, 0.028081, 0.028057, 0.028082, 0.028071, 0.027997
STANDARD_DATASET, 0.028181, 0.028193, 0.027968, 0.027950, 0.028026, 0.028216, 0.028069, 0.028125, 0.029204, 0.028100
STANDARD_DATASET, 0.027884, 0.028123, 0.028008, 0.027891, 0.028188, 0.028116, 0.028118, 0.027937, 0.027774, 0.028088
LARGE_DATASET, 0.142842, 0.143255, 0.143784, 0.143658, 0.142930, 0.142596, 0.142951, 0.142838, 0.143073, 0.143717
LARGE_DATASET, 0.139941, 0.137198, 0.144773, 0.141346, 0.142129, 0.134578, 0.142699, 0.140711, 0.136367, 0.142785
LARGE_DATASET, 0.142949, 0.143548, 0.143619, 0.143060, 0.143716, 0.143934, 0.141103, 0.143105, 0.142271, 0.142325
LARGE_DATASET, 0.141621, 0.143097, 0.141321, 0.142683, 0.142834, 0.143155, 0.141964, 0.142297, 0.143535, 0.143199
LARGE_DATASET, 0.140033, 0.143150, 0.140064, 0.141052, 0.140590, 0.141375, 0.143043, 0.142878, 0.142539, 0.141481
LARGE_DATASET, 0.143986, 0.142924, 0.143830, 0.141782, 0.142351, 0.143364, 0.143743, 0.141678, 0.141739, 0.142261
LARGE_DATASET, 0.141702, 0.142492, 0.142312, 0.143190, 0.144135, 0.140313, 0.143016, 0.142923, 0.142770, 0.140390
LARGE_DATASET, 0.142878, 0.142515, 0.143216, 0.141940, 0.143359, 0.143094, 0.143000, 0.140981, 0.142172, 0.141115
LARGE_DATASET, 0.141099, 0.141978, 0.142505, 0.141581, 0.143372, 0.143227, 0.142331, 0.142430, 0.142113, 0.141947
LARGE_DATASET, 0.143713, 0.144008, 0.143015, 0.142556, 0.143559, 0.141408, 0.142467, 0.142789, 0.143021, 0.141156
EXTRALARGE_DATASET, 0.695236, 0.676214, 0.677162, 0.677671, 0.684113, 0.676754, 0.678296, 0.675609, 0.680407, 0.685840
EXTRALARGE_DATASET, 0.681174, 0.681355, 0.688897, 0.695923, 0.687972, 0.689328, 0.679368, 0.676068, 0.702306, 0.671769
EXTRALARGE_DATASET, 0.688046, 0.683977, 0.677787, 0.670907, 0.699500, 0.673393, 0.676009, 0.704771, 0.681592, 0.697504
EXTRALARGE_DATASET, 0.689095, 0.685485, 0.678971, 0.697344, 0.675344, 0.692408, 0.688760, 0.673797, 0.675304, 0.693520
EXTRALARGE_DATASET, 0.684402, 0.678065, 0.699049, 0.679743, 0.694753, 0.688984, 0.694263, 0.676953, 0.682245, 0.701352
EXTRALARGE_DATASET, 0.678936, 0.675850, 0.692714, 0.678149, 0.688018, 0.685096, 0.679472, 0.693548, 0.677917, 0.672586
EXTRALARGE_DATASET, 0.676806, 0.677826, 0.682948, 0.673771, 0.676655, 0.674338, 0.673304, 0.677940, 0.687024, 0.692430
EXTRALARGE_DATASET, 0.703149, 0.676933, 0.684582, 0.676588, 0.667695, 0.677272, 0.678701, 0.678485, 0.686640, 0.695350
EXTRALARGE_DATASET, 0.685775, 0.680456, 0.690392, 0.678021, 0.677074, 0.673582, 0.680954, 0.673897, 0.674143, 0.675923
EXTRALARGE_DATASET, 0.681415, 0.682610, 0.705190, 0.682669, 0.676887, 0.697719, 0.668434, 0.681164, 0.693135, 0.693758
