MINI_DATASET, 0.002335, 0.002306, 0.002348, 0.002329, 0.002327, 0.002304, 0.002286, 0.002322, 0.002297, 0.002290
MINI_DATASET, 0.002307, 0.002312, 0.002285, 0.002340, 0.002333, 0.002312, 0.002362, 0.002327, 0.002357, 0.002394
MINI_DATASET, 0.002322, 0.002320, 0.002337, 0.002307, 0.002306, 0.002310, 0.002343, 0.002299, 0.002314, 0.002332
MINI_DATASET, 0.002318, 0.002310, 0.002323, 0.002352, 0.002297, 0.002298, 0.002332, 0.002311, 0.002315, 0.002316
MINI_DATASET, 0.002357, 0.002311, 0.002294, 0.002293, 0.002295, 0.002322, 0.002325, 0.002300, 0.002327, 0.002327
MINI_DATASET, 0.002304, 0.002295, 0.002341, 0.002315, 0.002312, 0.002312, 0.002331, 0.002354, 0.002321, 0.002292
MINI_DATASET, 0.002304, 0.002300, 0.002306, 0.002320, 0.002363, 0.002309, 0.002354, 0.002302, 0.002315, 0.002310
MINI_DATASET, 0.002329, 0.002368, 0.002369, 0.002391, 0.002364, 0.002405, 0.002387, 0.002439, 0.002370, 0.002366
MINI_DATASET, 0.002363, 0.002337, 0.002337, 0.002371, 0.002371, 0.002398, 0.002357, 0.002366, 0.002369, 0.002397
MINI_DATASET, 0.002368, 0.002336, 0.002328, 0.002356, 0.002343, 0.002347, 0.002334, 0.002368, 0.002348, 0.002338
SMALL_DATASET, 0.008038, 0.008028, 0.008141, 0.008041, 0.008033, 0.008091, 0.008127, 0.008104, 0.008019, 0.008076
SMALL_DATASET, 0.008089, 0.008068, 0.008147, 0.008049, 0.008059, 0.008046, 0.008160, 0.008302, 0.008083, 0.008107
SMALL_DATASET, 0.008039, 0.008049, 0.007980, 0.008092, 0.008021, 0.008039, 0.007971, 0.007964, 0.007958, 0.008115
SMALL_DATASET, 0.008057, 0.008127, 0.008132, 0.007964, 0.008010, 0.007943, 0.008134, 0.008057, 0.008102, 0.008013
SMALL_DATASET, 0.008049, 0.008016, 0.008072, 0.008114, 0.008351, 0.008021, 0.008059, 0.008158, 0.007927, 0.008039
SMALL_DATASET, 0.008044, 0.007999, 0.008062, 0.008020, 0.008004, 0.007939, 0.008069, 0.008401, 0.008006, 0.008015
SMALL_DATASET, 0.008079, 0.008030, 0.008093, 0.008193, 0.007987, 0.008039, 0.008025, 0.007937, 0.008052, 0.007949
SMALL_DATASET, 0.007986, 0.008002, 0.008078, 0.008040, 0.007993, 0.008009, 0.008113, 0.007986, 0.008122, 0.008012
SMALL_DATASET, 0.007976, 0.008104, 0.007993, 0.008073, 0.008110, 0.008073, 0.008061, 0.008038, 0.007933, 0.008063
SMALL_DATASET, 0.008058, 0.008209, 0.008012, 0.008091, 0.008160, 0.008013, 0.007953, 0.008018, 0.008013, 0.007954
STANDARD_DATASET, 0.043991, 0.043855, 0.042692, 0.043630, 0.043409, 0.043211, 0.042808, 0.043306, 0.043937, 0.042905
STANDARD_DATASET, 0.043924, 0.043892, 0.044298, 0.043373, 0.043748, 0.043644, 0.043017, 0.044431, 0.043446, 0.045912
STANDARD_DATASET, 0.044563, 0.043487, 0.042983, 0.043700, 0.043912, 0.044678, 0.044188, 0.043388, 0.043717, 0.044161
STANDARD_DATASET, 0.043819, 0.043087, 0.042737, 0.043244, 0.043415, 0.043633, 0.044232, 0.042951, 0.042690, 0.043986
STANDARD_DATASET, 0.036566, 0.036507, 0.036677, 0.036505, 0.037014, 0.036776, 0.036954, 0.036380, 0.036466, 0.036720
STANDARD_DATASET, 0.042572, 0.043137, 0.045027, 0.043712, 0.043324, 0.043669, 0.044148, 0.043394, 0.043873, 0.043683
STANDARD_DATASET, 0.043103, 0.042503, 0.043145, 0.043435, 0.043265, 0.042855, 0.043105, 0.044326, 0.043682, 0.043060
STANDARD_DATASET, 0.037014, 0.036850, 0.036782, 0.036751, 0.037028, 0.036895, 0.037288, 0.037120, 0.038427, 0.036993
STANDARD_DATASET, 0.043635, 0.043859, 0.043226, 0.044409, 0.043512, 0.043013, 0.044805, 0.044180, 0.043266, 0.043935
STANDARD_DATASET, 0.043267, 0.042967, 0.044475, 0.043055, 0.043979, 0.043579, 0.044954, 0.043647, 0.043937, 0.043585
