MINI_DATASET, 0.028597, 0.028116, 0.026416, 0.027135, 0.026174, 0.028101, 0.030659, 0.028068, 0.026336, 0.029866
MINI_DATASET, 0.026776, 0.027711, 0.028552, 0.030538, 0.027436, 0.027572, 0.027452, 0.027228, 0.029698, 0.024844
MINI_DATASET, 0.028455, 0.031646, 0.030536, 0.029788, 0.027204, 0.029374, 0.027117, 0.026977, 0.030437, 0.027627
MINI_DATASET, 0.027867, 0.027415, 0.030651, 0.027411, 0.027207, 0.026774, 0.028124, 0.027420, 0.030978, 0.028750
MINI_DATASET, 0.025768, 0.027000, 0.025714, 0.028336, 0.026758, 0.026686, 0.027565, 0.027956, 0.025675, 0.027440
MINI_DATASET, 0.030664, 0.026816, 0.027908, 0.026612, 0.031464, 0.029741, 0.028185, 0.029585, 0.030132, 0.031073
MINI_DATASET, 0.032261, 0.025633, 0.028335, 0.027636, 0.028521, 0.029266, 0.029400, 0.028426, 0.030244, 0.026511
MINI_DATASET, 0.026184, 0.030282, 0.025742, 0.030765, 0.028618, 0.027336, 0.027610, 0.029200, 0.030715, 0.028569
MINI_DATASET, 0.029570, 0.027170, 0.029373, 0.030115, 0.024921, 0.029471, 0.029877, 0.028786, 0.028043, 0.027598
MINI_DATASET, 0.032859, 0.026745, 0.026614, 0.029810, 0.032591, 0.026793, 0.027081, 0.026421, 0.027042, 0.027662
SMALL_DATASET, 0.069687, 0.072671, 0.088537, 0.078473, 0.072796, 0.075817, 0.076567, 0.075271, 0.083682, 0.072665
SMALL_DATASET, 0.074647, 0.077101, 0.075065, 0.069374, 0.083950, 0.076315, 0.084073, 0.082580, 0.082677, 0.082712
SMALL_DATASET, 0.074442, 0.086930, 0.073567, 0.078533, 0.077932, 0.082739, 0.081061, 0.079379, 0.078883, 0.078243
SMALL_DATASET, 0.085287, 0.077880, 0.079677, 0.085085, 0.082717, 0.075869, 0.072045, 0.079715, 0.085019, 0.088781
SMALL_DATASET, 0.072833, 0.081693, 0.077173, 0.081391, 0.077566, 0.082609, 0.077847, 0.077961, 0.078378, 0.084023
SMALL_DATASET, 0.077515, 0.081050, 0.083036, 0.085009, 0.086032, 0.080869, 0.082100, 0.086592, 0.079117, 0.082009
SMALL_DATASET, 0.070442, 0.075732, 0.084774, 0.074156, 0.090889, 0.074408, 0.075997, 0.081157, 0.079171, 0.087536
SMALL_DATASET, 0.071584, 0.076926, 0.079345, 0.081715, 0.085153, 0.085929, 0.086576, 0.083358, 0.071742, 0.072967
SMALL_DATASET, 0.072539, 0.075411, 0.078144, 0.086059, 0.083905, 0.078128, 0.072273, 0.083731, 0.077679, 0.093136
SMALL_DATASET, 0.083055, 0.077075, 0.074405, 0.089305, 0.082253, 0.074551, 0.084760, 0.089598, 0.077572, 0.083909
STANDARD_DATASET, 0.216686, 0.218061, 0.224950, 0.229664, 0.221019, 0.222059, 0.222214, 0.230693, 0.230710, 0.225556
STANDARD_DATASET, 0.228084, 0.230886, 0.220613, 0.222034, 0.221604, 0.219492, 0.216694, 0.238834, 0.213864, 0.230178
STANDARD_DATASET, 0.213241, 0.229091, 0.226888, 0.228044, 0.231904, 0.218746, 0.224159, 0.217907, 0.224232, 0.219226
STANDARD_DATASET, 0.217107, 0.223917, 0.228104, 0.232788, 0.218024, 0.218323, 0.229069, 0.233817, 0.218411, 0.235989
STANDARD_DATASET, 0.220656, 0.222148, 0.225869, 0.219062, 0.225303, 0.222828, 0.222950, 0.224328, 0.219514, 0.220179
STANDARD_DATASET, 0.226662, 0.217556, 0.216444, 0.240608, 0.226771, 0.220218, 0.230877, 0.216575, 0.224441, 0.222126
STANDARD_DATASET, 0.224583, 0.216638, 0.234616, 0.215414, 0.228356, 0.222758, 0.224248, 0.218279, 0.217699, 0.217847
STANDARD_DATASET, 0.217747, 0.218135, 0.218982, 0.222885, 0.223492, 0.231266, 0.223185, 0.229181, 0.234526, 0.219964
STANDARD_DATASET, 0.213398, 0.222459, 0.219774, 0.225404, 0.224650, 0.229272, 0.225479, 0.217606, 0.217620, 0.223669
STANDARD_DATASET, 0.228972, 0.218984, 0.229353, 0.223211, 0.221664, 0.213223, 0.219214, 0.238547, 0.227608, 0.252850
LARGE_DATASET, 3.297260, 3.315628, 3.311883, 3.329217, 3.343041, 3.326649, 3.340596, 3.306691, 3.334072, 3.364417
LARGE_DATASET, 3.339941, 3.334191, 3.330078, 3.327432, 3.321214, 3.334398, 3.361018, 3.359208, 3.356244, 3.322912
LARGE_DATASET, 3.336570, 3.315541, 3.330715, 3.337345, 3.347762, 3.323706, 3.303958, 3.321727, 3.344287, 3.347275
LARGE_DATASET, 3.310548, 3.345816, 3.315757, 3.351238, 3.326870, 3.316645, 3.278592, 3.326898, 3.349506, 3.338603
LARGE_DATASET, 3.364226, 3.347879, 3.318514, 3.321293, 3.332348, 3.307485, 3.332479, 3.318080, 3.313714, 3.316099
LARGE_DATASET, 3.318042, 3.381371, 3.318280, 3.319125, 3.298371, 3.340554, 3.317963, 3.351970, 3.330368, 3.318590
LARGE_DATASET, 3.346023, 3.346150, 3.310432, 3.348081, 3.332485, 3.319478, 3.360672, 3.334323, 3.332224, 3.361798
LARGE_DATASET, 3.342282, 3.353902, 3.321849, 3.356028, 3.360129, 3.334065, 3.336000, 3.282254, 3.315850, 3.335449
LARGE_DATASET, 3.310218, 3.318166, 3.372297, 3.320807, 3.302788, 3.350015, 3.320236, 3.321297, 3.306242, 3.318273
LARGE_DATASET, 3.310370, 3.319375, 3.351028, 3.321980, 3.328989, 3.333963, 3.310773, 3.339785, 3.342263, 3.316789
EXTRALARGE_DATASET, 13.276596, 13.297079, 13.296437, 13.230435, 13.306958, 13.277029, 13.393649, 13.456353, 13.252677, 13.350855
EXTRALARGE_DATASET, 13.339293, 13.248220, 13.374292, 13.344031, 13.270277, 13.224953, 13.260029, 13.254671, 13.247196, 13.291169
EXTRALARGE_DATASET, 13.308403, 13.319631, 13.224077, 13.210327, 13.313851, 13.299539, 13.184919, 13.208254, 13.227599, 13.281331
EXTRALARGE_DATASET, 13.315092, 13.225764, 13.284300, 13.253252, 13.216559, 13.302616, 13.436244, 13.281690, 13.202344, 13.261757
EXTRALARGE_DATASET, 13.277769, 13.279298, 13.178059, 13.277268, 13.201734, 13.233178, 13.161389, 13.187846, 13.241028, 13.138053
EXTRALARGE_DATASET, 13.150259, 13.277209, 13.263535, 13.224944, 13.233394, 13.273438, 13.198467, 13.241512, 13.314641, 13.249123
EXTRALARGE_DATASET, 13.299007, 13.240813, 13.204026, 13.399106, 13.281595, 13.225176, 13.342461, 13.372800, 13.345350, 13.280624
EXTRALARGE_DATASET, 13.291925, 13.416949, 13.358823, 13.342644, 13.175611, 13.179284, 13.293463, 13.337414, 13.278382, 13.243707
EXTRALARGE_DATASET, 13.322547, 13.285501, 13.221588, 13.230314, 13.260413, 13.206329, 13.317472, 13.276691, 13.346392, 13.282490
EXTRALARGE_DATASET, 13.242512, 13.245926, 13.175220, 13.203042, 13.434707, 13.193933, 13.245520, 13.288310, 13.314196, 13.212477
