MINI_DATASET, 0.001034, 0.001042, 0.001043, 0.001084, 0.001030, 0.001053, 0.001033, 0.001023, 0.001046, 0.001009
MINI_DATASET, 0.001031, 0.001056, 0.001026, 0.001042, 0.001024, 0.001026, 0.001038, 0.001014, 0.001027, 0.000983
MINI_DATASET, 0.001064, 0.001049, 0.001042, 0.001048, 0.001031, 0.001067, 0.001049, 0.001035, 0.001040, 0.001023
MINI_DATASET, 0.001977, 0.001046, 0.001036, 0.001028, 0.001037, 0.001041, 0.001027, 0.001037, 0.001031, 0.000999
MINI_DATASET, 0.001034, 0.001083, 0.001021, 0.001028, 0.001022, 0.001036, 0.001050, 0.001052, 0.001076, 0.001023
MINI_DATASET, 0.001051, 0.001040, 0.001033, 0.001044, 0.001030, 0.001065, 0.001238, 0.001261, 0.001042, 0.001016
MINI_DATASET, 0.001055, 0.001039, 0.001048, 0.001087, 0.001062, 0.001072, 0.001059, 0.001085, 0.001094, 0.001019
MINI_DATASET, 0.001192, 0.001203, 0.001023, 0.001034, 0.001022, 0.001030, 0.001032, 0.001013, 0.001060, 0.000983
MINI_DATASET, 0.001047, 0.001071, 0.001040, 0.001091, 0.001072, 0.001017, 0.001068, 0.001048, 0.001069, 0.000990
MINI_DATASET, 0.001082, 0.001051, 0.001089, 0.001034, 0.001035, 0.001043, 0.001035, 0.001091, 0.001043, 0.001016
SMALL_DATASET, 0.002729, 0.002615, 0.002722, 0.002724, 0.002704, 0.002622, 0.002651, 0.007202, 0.002693, 0.002639
SMALL_DATASET, 0.002765, 0.002619, 0.002610, 0.002689, 0.002731, 0.002618, 0.002650, 0.002602, 0.002633, 0.002643
SMALL_DATASET, 0.002591, 0.002616, 0.002660, 0.002543, 0.002604, 0.002569, 0.002555, 0.002569, 0.002580, 0.002600
SMALL_DATASET, 0.002619, 0.002636, 0.002740, 0.002572, 0.002616, 0.002577, 0.002607, 0.002648, 0.002591, 0.002624
SMALL_DATASET, 0.003110, 0.003655, 0.003082, 0.003148, 0.002603, 0.002796, 0.002846, 0.002835, 0.002828, 0.002822
SMALL_DATASET, 0.003058, 0.003107, 0.002606, 0.002618, 0.002838, 0.002791, 0.002809, 0.002602, 0.002607, 0.002754
SMALL_DATASET, 0.002646, 0.002616, 0.002598, 0.002629, 0.002559, 0.002579, 0.002535, 0.002560, 0.002660, 0.002651
SMALL_DATASET, 0.002535, 0.002567, 0.002516, 0.002569, 0.002545, 0.002611, 0.002549, 0.002600, 0.002618, 0.002600
SMALL_DATASET, 0.003142, 0.003223, 0.003176, 0.003163, 0.003180, 0.003164, 0.003142, 0.003167, 0.003188, 0.002520
SMALL_DATASET, 0.002577, 0.002556, 0.002570, 0.002547, 0.002572, 0.002512, 0.002533, 0.002516, 0.002591, 0.002608
STANDARD_DATASET, 0.006518, 0.006539, 0.006464, 0.006516, 0.006547, 0.006545, 0.006455, 0.006488, 0.006429, 0.006443
STANDARD_DATASET, 0.006446, 0.006361, 0.006415, 0.006479, 0.008463, 0.006435, 0.010028, 0.007255, 0.007286, 0.007352
STANDARD_DATASET, 0.007278, 0.007310, 0.007260, 0.007320, 0.007277, 0.007353, 0.007236, 0.007099, 0.007139, 0.007227
STANDARD_DATASET, 0.007690, 0.007356, 0.007393, 0.007346, 0.007326, 0.007328, 0.007283, 0.007247, 0.007253, 0.007276
STANDARD_DATASET, 0.007096, 0.006359, 0.006376, 0.006387, 0.006447, 0.006432, 0.006406, 0.006398, 0.006400, 0.006412
STANDARD_DATASET, 0.006462, 0.006475, 0.006503, 0.006428, 0.006682, 0.007234, 0.007222, 0.007157, 0.007149, 0.007182
STANDARD_DATASET, 0.008052, 0.008106, 0.008007, 0.008003, 0.008052, 0.006721, 0.006473, 0.006440, 0.006425, 0.006390
STANDARD_DATASET, 0.006963, 0.006890, 0.006931, 0.006445, 0.006505, 0.006491, 0.006390, 0.006396, 0.006357, 0.006340
STANDARD_DATASET, 0.007038, 0.007025, 0.006594, 0.006532, 0.006556, 0.006484, 0.006454, 0.006451, 0.006908, 0.006471
STANDARD_DATASET, 0.007055, 0.006598, 0.006546, 0.006517, 0.006595, 0.006540, 0.007377, 0.007546, 0.007356, 0.007110
LARGE_DATASET, 0.043721, 0.042918, 0.043090, 0.043024, 0.043934, 0.042898, 0.042770, 0.042889, 0.042819, 0.042918
LARGE_DATASET, 0.043842, 0.044816, 0.043824, 0.043175, 0.042998, 0.043169, 0.044772, 0.044233, 0.044754, 0.043528
LARGE_DATASET, 0.041386, 0.041617, 0.041889, 0.043072, 0.042818, 0.042737, 0.043006, 0.042849, 0.042870, 0.043111
LARGE_DATASET, 0.043719, 0.043784, 0.043201, 0.043278, 0.044772, 0.043109, 0.042750, 0.042397, 0.043975, 0.043585
LARGE_DATASET, 0.045896, 0.045013, 0.042616, 0.042882, 0.043048, 0.043109, 0.042579, 0.042904, 0.042934, 0.042927
LARGE_DATASET, 0.043789, 0.043674, 0.043814, 0.043775, 0.043688, 0.043718, 0.043759, 0.043702, 0.042957, 0.043026
LARGE_DATASET, 0.043703, 0.043585, 0.042902, 0.043117, 0.043189, 0.042628, 0.043077, 0.042844, 0.042954, 0.042759
LARGE_DATASET, 0.043361, 0.043599, 0.043395, 0.043614, 0.043446, 0.042700, 0.047493, 0.042374, 0.043828, 0.043710
LARGE_DATASET, 0.041560, 0.041532, 0.041653, 0.041522, 0.041584, 0.041496, 0.041331, 0.041869, 0.046752, 0.041636
LARGE_DATASET, 0.042719, 0.042281, 0.041592, 0.041346, 0.041297, 0.041464, 0.041378, 0.041699, 0.041398, 0.052495
EXTRALARGE_DATASET, 0.499847, 0.497824, 0.498459, 0.498258, 0.497105, 0.501656, 0.498841, 0.498426, 0.493907, 0.498628
EXTRALARGE_DATASET, 0.500758, 0.494962, 0.495588, 0.495014, 0.496977, 0.500738, 0.494990, 0.495027, 0.494597, 0.494198
EXTRALARGE_DATASET, 0.496047, 0.495252, 0.498250, 0.495454, 0.493285, 0.501351, 0.493412, 0.498044, 0.494615, 0.493915
EXTRALARGE_DATASET, 0.495272, 0.495055, 0.498731, 0.496719, 0.499977, 0.494626, 0.494572, 0.498150, 0.495186, 0.497570
EXTRALARGE_DATASET, 0.495678, 0.497802, 0.499888, 0.498664, 0.500719, 0.497436, 0.493616, 0.498930, 0.494194, 0.495189
EXTRALARGE_DATASET, 0.495304, 0.493857, 0.500103, 0.493694, 0.495848, 0.496736, 0.496011, 0.496249, 0.495209, 0.493871
EXTRALARGE_DATASET, 0.495664, 0.494243, 0.494655, 0.494045, 0.496736, 0.495953, 0.495252, 0.499243, 0.494077, 0.495523
EXTRALARGE_DATASET, 0.494927, 0.494058, 0.494004, 0.494825, 0.500533, 0.498170, 0.498263, 0.503256, 0.497330, 0.502042
EXTRALARGE_DATASET, 0.498541, 0.498304, 0.494247, 0.493881, 0.497710, 0.495660, 0.493780, 0.495242, 0.498209, 0.501880
EXTRALARGE_DATASET, 0.498025, 0.495416, 0.495113, 0.495532, 0.496831, 0.493866, 0.497199, 0.495373, 0.499128, 0.501301
