MINI_DATASET, 0.001286, 0.001216, 0.001380, 0.001371, 0.001237, 0.001451, 0.001270, 0.001401, 0.001279, 0.001353
MINI_DATASET, 0.001281, 0.001422, 0.001747, 0.001255, 0.001243, 0.001536, 0.001651, 0.001527, 0.001532, 0.001677
MINI_DATASET, 0.001633, 0.001541, 0.001494, 0.001484, 0.001653, 0.001515, 0.001718, 0.001551, 0.001674, 0.001512
MINI_DATASET, 0.001759, 0.001561, 0.001595, 0.001552, 0.001637, 0.001503, 0.001682, 0.001543, 0.001677, 0.001543
MINI_DATASET, 0.001649, 0.001534, 0.001707, 0.001528, 0.001586, 0.001567, 0.001513, 0.001651, 0.001507, 0.001534
MINI_DATASET, 0.001569, 0.001503, 0.001538, 0.001513, 0.001634, 0.001500, 0.001494, 0.001502, 0.001564, 0.002467
MINI_DATASET, 0.001539, 0.001504, 0.001594, 0.001653, 0.001535, 0.001702, 0.001530, 0.001525, 0.001517, 0.001706
MINI_DATASET, 0.001571, 0.001657, 0.001519, 0.001553, 0.001511, 0.001554, 0.001544, 0.001548, 0.001618, 0.001520
MINI_DATASET, 0.001603, 0.001499, 0.001617, 0.001608, 0.001660, 0.001625, 0.001637, 0.001640, 0.001496, 0.001515
MINI_DATASET, 0.001629, 0.001533, 0.001558, 0.001495, 0.001510, 0.001531, 0.001550, 0.001523, 0.001514, 0.001507
SMALL_DATASET, 0.004760, 0.004513, 0.004516, 0.004513, 0.004460, 0.004512, 0.004465, 0.004480, 0.004439, 0.004465
SMALL_DATASET, 0.004614, 0.004602, 0.004541, 0.004608, 0.004530, 0.004502, 0.004659, 0.004442, 0.004490, 0.004447
SMALL_DATASET, 0.004564, 0.004510, 0.004508, 0.004436, 0.004488, 0.004426, 0.004496, 0.004468, 0.004464, 0.004685
SMALL_DATASET, 0.004573, 0.004547, 0.004816, 0.004454, 0.004573, 0.004547, 0.004604, 0.004427, 0.004420, 0.004432
SMALL_DATASET, 0.004492, 0.004446, 0.004408, 0.004511, 0.004492, 0.004423, 0.004467, 0.004436, 0.004436, 0.004441
SMALL_DATASET, 0.004525, 0.004411, 0.004498, 0.004510, 0.004510, 0.004472, 0.004604, 0.004523, 0.004607, 0.004468
SMALL_DATASET, 0.004534, 0.004443, 0.004435, 0.004524, 0.004536, 0.004424, 0.004521, 0.004536, 0.004493, 0.004528
SMALL_DATASET, 0.004526, 0.004623, 0.004437, 0.004477, 0.004433, 0.004474, 0.004505, 0.004436, 0.004420, 0.004456
SMALL_DATASET, 0.004588, 0.004445, 0.004498, 0.004530, 0.004670, 0.004433, 0.004438, 0.004523, 0.004442, 0.004514
SMALL_DATASET, 0.004496, 0.004422, 0.004508, 0.004432, 0.004474, 0.004474, 0.004421, 0.004468, 0.005863, 0.004440
STANDARD_DATASET, 0.028006, 0.027949, 0.028207, 0.027997, 0.028049, 0.027955, 0.028034, 0.027978, 0.028205, 0.028156
STANDARD_DATASET, 0.027849, 0.028145, 0.028081, 0.028041, 0.028059, 0.027925, 0.028113, 0.026107, 0.027931, 0.028075
STANDARD_DATASET, 0.028244, 0.028258, 0.028005, 0.027984, 0.028302, 0.028157, 0.028127, 0.028037, 0.028253, 0.027966
STANDARD_DATASET, 0.028217, 0.028043, 0.027958, 0.028080, 0.028072, 0.027622, 0.027950, 0.027953, 0.028221, 0.027575
STANDARD_DATASET, 0.027828, 0.028114, 0.028077, 0.028256, 0.027916, 0.027884, 0.028006, 0.028263, 0.028039, 0.027881
STANDARD_DATASET, 0.028314, 0.028048, 0.028167, 0.028280, 0.028006, 0.028287, 0.027994, 0.027935, 0.028167, 0.028018
STANDARD_DATASET, 0.028220, 0.028214, 0.028034, 0.028006, 0.028048, 0.027876, 0.028021, 0.028172, 0.027978, 0.027947
STANDARD_DATASET, 0.028308, 0.028094, 0.028058, 0.028015, 0.027840, 0.028296, 0.028054, 0.028020, 0.028287, 0.028161
STANDARD_DATASET, 0.028228, 0.028100, 0.028013, 0.028092, 0.028151, 0.028117, 0.028152, 0.027969, 0.028108, 0.028029
STANDARD_DATASET, 0.028221, 0.027375, 0.028217, 0.027488, 0.028107, 0.027514, 0.028010, 0.028212, 0.027679, 0.028109
LARGE_DATASET, 0.142011, 0.144021, 0.139687, 0.141761, 0.141038, 0.142848, 0.142718, 0.142829, 0.142045, 0.142649
LARGE_DATASET, 0.142659, 0.142613, 0.141344, 0.142749, 0.143578, 0.143162, 0.142210, 0.143415, 0.142266, 0.142598
LARGE_DATASET, 0.142695, 0.142661, 0.142066, 0.143005, 0.142327, 0.143210, 0.141011, 0.143502, 0.142158, 0.142071
LARGE_DATASET, 0.143519, 0.142293, 0.143864, 0.142292, 0.141389, 0.143157, 0.142719, 0.140908, 0.142530, 0.142988
LARGE_DATASET, 0.142966, 0.143595, 0.141367, 0.141430, 0.141723, 0.142945, 0.141282, 0.141974, 0.142018, 0.142286
LARGE_DATASET, 0.140384, 0.138971, 0.142573, 0.143428, 0.140841, 0.143714, 0.141632, 0.143136, 0.141501, 0.139770
LARGE_DATASET, 0.142228, 0.142910, 0.142673, 0.143209, 0.142694, 0.142690, 0.143552, 0.143007, 0.141010, 0.143491
LARGE_DATASET, 0.142499, 0.143180, 0.143364, 0.142487, 0.141655, 0.140180, 0.142804, 0.142945, 0.141097, 0.143174
LARGE_DATASET, 0.142471, 0.143763, 0.142064, 0.142318, 0.142520, 0.142692, 0.142140, 0.142631, 0.141380, 0.142146
LARGE_DATASET, 0.143495, 0.143014, 0.142507, 0.138928, 0.143366, 0.142303, 0.144521, 0.140203, 0.142743, 0.143948
EXTRALARGE_DATASET, 0.687927, 0.690042, 0.682777, 0.666823, 0.669345, 0.684571, 0.673194, 0.676101, 0.683576, 0.692752
EXTRALARGE_DATASET, 0.684970, 0.672213, 0.684426, 0.671762, 0.682900, 0.695565, 0.674514, 0.686169, 0.691219, 0.678157
EXTRALARGE_DATASET, 0.686379, 0.689808, 0.684651, 0.680038, 0.676646, 0.680823, 0.697786, 0.685638, 0.681605, 0.686725
EXTRALARGE_DATASET, 0.680701, 0.687571, 0.669298, 0.680204, 0.687447, 0.688306, 0.694544, 0.686456, 0.675879, 0.678046
EXTRALARGE_DATASET, 0.685776, 0.688144, 0.693908, 0.689974, 0.685187, 0.675282, 0.677954, 0.676571, 0.679000, 0.692663
EXTRALARGE_DATASET, 0.676682, 0.691505, 0.689589, 0.702789, 0.687221, 0.695752, 0.689461, 0.691074, 0.679901, 0.682248
EXTRALARGE_DATASET, 0.693682, 0.676384, 0.689824, 0.693144, 0.674756, 0.673960, 0.675929, 0.695947, 0.691072, 0.692058
EXTRALARGE_DATASET, 0.679791, 0.680381, 0.679286, 0.696151, 0.686277, 0.691785, 0.693188, 0.679534, 0.682782, 0.679201
EXTRALARGE_DATASET, 0.682325, 0.689660, 0.684008, 0.665554, 0.680140, 0.681272, 0.674252, 0.676512, 0.675088, 0.693213
EXTRALARGE_DATASET, 0.671637, 0.705480, 0.692876, 0.685887, 0.676525, 0.686785, 0.683856, 0.691119, 0.685005, 0.696875
