MINI_DATASET, 0.000396, 0.000376, 0.000379, 0.000535, 0.000418, 0.000404, 0.000562, 0.000431, 0.000430, 0.000419
MINI_DATASET, 0.000388, 0.000395, 0.000429, 0.000425, 0.000426, 0.000416, 0.000416, 0.000465, 0.000409, 0.000418
MINI_DATASET, 0.000470, 0.000461, 0.000513, 0.000434, 0.000441, 0.000443, 0.000442, 0.000446, 0.000409, 0.000432
MINI_DATASET, 0.000410, 0.000483, 0.000470, 0.000426, 0.000412, 0.000401, 0.000419, 0.000418, 0.000403, 0.000399
MINI_DATASET, 0.000405, 0.000405, 0.000479, 0.000479, 0.000431, 0.000439, 0.000426, 0.000430, 0.000414, 0.000432
MINI_DATASET, 0.000418, 0.000500, 0.000423, 0.000396, 0.000396, 0.000392, 0.000393, 0.000389, 0.000388, 0.000392
MINI_DATASET, 0.000405, 0.000481, 0.000484, 0.000427, 0.000410, 0.000401, 0.000400, 0.000400, 0.000401, 0.000409
MINI_DATASET, 0.000393, 0.000493, 0.000482, 0.000437, 0.000401, 0.000405, 0.000450, 0.000412, 0.000528, 0.000426
MINI_DATASET, 0.000400, 0.000386, 0.000447, 0.000429, 0.000427, 0.000403, 0.000422, 0.000400, 0.000394, 0.000417
MINI_DATASET, 0.000401, 0.000475, 0.000492, 0.000423, 0.000434, 0.000407, 0.000429, 0.000397, 0.000409, 0.000417
SMALL_DATASET, 0.000779, 0.000837, 0.000830, 0.000791, 0.000776, 0.000787, 0.000778, 0.000772, 0.000767, 0.000769
SMALL_DATASET, 0.000756, 0.000776, 0.000829, 0.000795, 0.000805, 0.000771, 0.000784, 0.000774, 0.000764, 0.000767
SMALL_DATASET, 0.000757, 0.000753, 0.000783, 0.000803, 0.000807, 0.000807, 0.000820, 0.000799, 0.000804, 0.000775
SMALL_DATASET, 0.000753, 0.000751, 0.000800, 0.000799, 0.000936, 0.000797, 0.000807, 0.000782, 0.000779, 0.000837
SMALL_DATASET, 0.000765, 0.000778, 0.000840, 0.000909, 0.000804, 0.000865, 0.000984, 0.000819, 0.000798, 0.000875
SMALL_DATASET, 0.000771, 0.000766, 0.000842, 0.000846, 0.000797, 0.000940, 0.000843, 0.000812, 0.000806, 0.000797
SMALL_DATASET, 0.000765, 0.000765, 0.000837, 0.000839, 0.000802, 0.000798, 0.000812, 0.000799, 0.000772, 0.000793
SMALL_DATASET, 0.000776, 0.000833, 0.000857, 0.000809, 0.000784, 0.000787, 0.000814, 0.000778, 0.000777, 0.000781
SMALL_DATASET, 0.000761, 0.000835, 0.000868, 0.000807, 0.000820, 0.000793, 0.000809, 0.000805, 0.000799, 0.000800
SMALL_DATASET, 0.000775, 0.000760, 0.000843, 0.000845, 0.000794, 0.000812, 0.000798, 0.000775, 0.000796, 0.000802
STANDARD_DATASET, 0.003631, 0.003637, 0.003618, 0.003611, 0.003623, 0.003673, 0.003712, 0.003682, 0.004169, 0.003675
STANDARD_DATASET, 0.003639, 0.003632, 0.003622, 0.003702, 0.003665, 0.003682, 0.003700, 0.003834, 0.003655, 0.003652
STANDARD_DATASET, 0.003636, 0.003712, 0.003683, 0.003675, 0.003688, 0.003664, 0.003679, 0.003671, 0.003659, 0.003662
STANDARD_DATASET, 0.003633, 0.003625, 0.003615, 0.003611, 0.003714, 0.003678, 0.003696, 0.003687, 0.003688, 0.003652
STANDARD_DATASET, 0.003634, 0.003634, 0.003631, 0.003691, 0.003673, 0.003663, 0.003683, 0.003635, 0.003640, 0.003638
STANDARD_DATASET, 0.003636, 0.003649, 0.004157, 0.003704, 0.003671, 0.003661, 0.003705, 0.003634, 0.003670, 0.003674
STANDARD_DATASET, 0.003636, 0.003635, 0.003636, 0.003633, 0.003692, 0.003665, 0.003651, 0.003671, 0.003641, 0.003636
STANDARD_DATASET, 0.003627, 0.003627, 0.003623, 0.003614, 0.003706, 0.003679, 0.003695, 0.003675, 0.003652, 0.003655
STANDARD_DATASET, 0.003641, 0.003624, 0.003610, 0.003723, 0.003674, 0.003664, 0.003680, 0.003671, 0.003643, 0.003652
STANDARD_DATASET, 0.003642, 0.003622, 0.003624, 0.003631, 0.003698, 0.003660, 0.003666, 0.003669, 0.003672, 0.003677
LARGE_DATASET, 0.026552, 0.026656, 0.026582, 0.026513, 0.026544, 0.026524, 0.026527, 0.026505, 0.026497, 0.026502
LARGE_DATASET, 0.026520, 0.026510, 0.026485, 0.026536, 0.026490, 0.026511, 0.026501, 0.026510, 0.026484, 0.026503
LARGE_DATASET, 0.026486, 0.026521, 0.026480, 0.026482, 0.026493, 0.026504, 0.026494, 0.026491, 0.026517, 0.026490
LARGE_DATASET, 0.026531, 0.026572, 0.026687, 0.026563, 0.026569, 0.026554, 0.026552, 0.026556, 0.026568, 0.026546
LARGE_DATASET, 0.026591, 0.027513, 0.026508, 0.026495, 0.026496, 0.026481, 0.026517, 0.026513, 0.026491, 0.026516
LARGE_DATASET, 0.026541, 0.026547, 0.026528, 0.026530, 0.026532, 0.026535, 0.026559, 0.026544, 0.026535, 0.026537
LARGE_DATASET, 0.026503, 0.026499, 0.026493, 0.026492, 0.026470, 0.026533, 0.026819, 0.026480, 0.026509, 0.026483
LARGE_DATASET, 0.026468, 0.026531, 0.026518, 0.026507, 0.028457, 0.026490, 0.026492, 0.026506, 0.026518, 0.026496
LARGE_DATASET, 0.026482, 0.026536, 0.026487, 0.026481, 0.026514, 0.026496, 0.026485, 0.026517, 0.026496, 0.027428
LARGE_DATASET, 0.026512, 0.026565, 0.026542, 0.026541, 0.026550, 0.026544, 0.026548, 0.026560, 0.026534, 0.026523
EXTRALARGE_DATASET, 0.210154, 0.209983, 0.209115, 0.209180, 0.209140, 0.209036, 0.210144, 0.209509, 0.209489, 0.209505
EXTRALARGE_DATASET, 0.209064, 0.210308, 0.209182, 0.209189, 0.210182, 0.209236, 0.210204, 0.209339, 0.209363, 0.210075
EXTRALARGE_DATASET, 0.210433, 0.209287, 0.209591, 0.208969, 0.209943, 0.210487, 0.209375, 0.209212, 0.209344, 0.209441
EXTRALARGE_DATASET, 0.210106, 0.209430, 0.209324, 0.210485, 0.209688, 0.210303, 0.209385, 0.209066, 0.209949, 0.209351
EXTRALARGE_DATASET, 0.209199, 0.209227, 0.209195, 0.209415, 0.210058, 0.209112, 0.209382, 0.209115, 0.209380, 0.210240
EXTRALARGE_DATASET, 0.209135, 0.209037, 0.210149, 0.209081, 0.210224, 0.209069, 0.209061, 0.210135, 0.208908, 0.210270
EXTRALARGE_DATASET, 0.209130, 0.209143, 0.209876, 0.209990, 0.209140, 0.209041, 0.209477, 0.210018, 0.209951, 0.209116
EXTRALARGE_DATASET, 0.209209, 0.210347, 0.209522, 0.210404, 0.209422, 0.209564, 0.210422, 0.209420, 0.210237, 0.209566
EXTRALARGE_DATASET, 0.209126, 0.209910, 0.209372, 0.209522, 0.209496, 0.209236, 0.210280, 0.209200, 0.209366, 0.209395
EXTRALARGE_DATASET, 0.209515, 0.209326, 0.210056, 0.209519, 0.209377, 0.210465, 0.209623, 0.210218, 0.209486, 0.209487
