MINI_DATASET, 0.008504, 0.008491, 0.008344, 0.007578, 0.007203, 0.007047, 0.007631, 0.007721, 0.007825, 0.007635
MINI_DATASET, 0.008678, 0.008968, 0.008129, 0.007576, 0.007628, 0.007433, 0.007255, 0.007318, 0.007510, 0.007564
MINI_DATASET, 0.008310, 0.008768, 0.008061, 0.007887, 0.007924, 0.007675, 0.007681, 0.008402, 0.007898, 0.007832
MINI_DATASET, 0.008508, 0.008946, 0.007671, 0.007622, 0.007340, 0.007815, 0.007780, 0.007658, 0.007777, 0.007839
MINI_DATASET, 0.008688, 0.008789, 0.007869, 0.007521, 0.007799, 0.007716, 0.007544, 0.007392, 0.007482, 0.007590
MINI_DATASET, 0.008328, 0.008812, 0.007447, 0.007636, 0.007723, 0.007265, 0.007270, 0.008168, 0.007529, 0.007787
MINI_DATASET, 0.008404, 0.008292, 0.008824, 0.008162, 0.007756, 0.007601, 0.007558, 0.007425, 0.007536, 0.007533
MINI_DATASET, 0.008276, 0.008710, 0.007957, 0.007868, 0.007764, 0.007559, 0.007633, 0.007640, 0.007530, 0.007487
MINI_DATASET, 0.008281, 0.008782, 0.008080, 0.008177, 0.008003, 0.007701, 0.007698, 0.007810, 0.007965, 0.007748
MINI_DATASET, 0.008361, 0.008571, 0.007751, 0.007748, 0.007625, 0.008082, 0.007254, 0.007303, 0.007375, 0.007106
SMALL_DATASET, 0.019821, 0.019718, 0.019637, 0.019504, 0.025000, 0.023233, 0.022899, 0.022496, 0.021949, 0.021655
SMALL_DATASET, 0.019787, 0.019770, 0.024967, 0.022190, 0.022178, 0.021818, 0.021840, 0.021896, 0.022269, 0.022631
SMALL_DATASET, 0.019824, 0.020037, 0.024756, 0.021661, 0.021568, 0.021589, 0.021905, 0.021694, 0.021686, 0.021914
SMALL_DATASET, 0.020241, 0.020113, 0.024048, 0.022271, 0.021675, 0.021502, 0.022005, 0.022027, 0.021828, 0.021363
SMALL_DATASET, 0.019792, 0.019848, 0.020170, 0.023589, 0.021949, 0.021598, 0.021549, 0.021549, 0.021398, 0.021467
SMALL_DATASET, 0.020157, 0.020199, 0.020267, 0.023105, 0.022723, 0.021707, 0.021406, 0.021248, 0.021337, 0.021379
SMALL_DATASET, 0.020487, 0.020632, 0.023644, 0.021779, 0.021731, 0.021414, 0.021408, 0.021425, 0.021322, 0.021599
SMALL_DATASET, 0.019802, 0.024340, 0.023711, 0.021280, 0.021475, 0.021479, 0.021350, 0.021345, 0.022365, 0.021782
SMALL_DATASET, 0.020047, 0.019939, 0.023929, 0.022364, 0.021902, 0.021232, 0.021071, 0.021041, 0.021187, 0.021323
SMALL_DATASET, 0.023965, 0.022503, 0.022348, 0.021432, 0.021339, 0.021285, 0.022063, 0.021317, 0.021350, 0.021424
STANDARD_DATASET, 0.056846, 0.056376, 0.056233, 0.056398, 0.056369, 0.056325, 0.056153, 0.057695, 0.056254, 0.056005
STANDARD_DATASET, 0.064149, 0.063798, 0.059981, 0.060108, 0.059853, 0.059815, 0.059982, 0.059934, 0.059892, 0.059899
STANDARD_DATASET, 0.065330, 0.061987, 0.061173, 0.060356, 0.060031, 0.060153, 0.059961, 0.060261, 0.060031, 0.061017
STANDARD_DATASET, 0.056178, 0.056190, 0.055866, 0.055637, 0.056887, 0.056024, 0.057016, 0.056849, 0.056690, 0.056761
STANDARD_DATASET, 0.056631, 0.056267, 0.056456, 0.056262, 0.057596, 0.056141, 0.056313, 0.056176, 0.055927, 0.056380
STANDARD_DATASET, 0.063259, 0.063381, 0.060541, 0.060743, 0.061680, 0.060772, 0.061144, 0.060179, 0.060125, 0.060005
STANDARD_DATASET, 0.056598, 0.056630, 0.056290, 0.056586, 0.056353, 0.056521, 0.056279, 0.056302, 0.056350, 0.056483
STANDARD_DATASET, 0.063036, 0.061190, 0.060095, 0.061052, 0.059987, 0.059825, 0.059793, 0.059520, 0.059799, 0.059793
STANDARD_DATASET, 0.057200, 0.057226, 0.057089, 0.056852, 0.056520, 0.055851, 0.057125, 0.055919, 0.056101, 0.056002
STANDARD_DATASET, 0.062287, 0.060359, 0.059967, 0.059927, 0.060917, 0.060211, 0.059979, 0.060671, 0.059949, 0.060050
LARGE_DATASET, 0.319585, 0.320513, 0.318656, 0.318972, 0.320594, 0.318857, 0.319485, 0.318088, 0.319911, 0.317864
LARGE_DATASET, 0.318628, 0.319530, 0.318992, 0.319008, 0.318600, 0.319388, 0.320198, 0.317602, 0.317001, 0.318857
LARGE_DATASET, 0.323916, 0.317352, 0.322493, 0.321256, 0.318227, 0.317166, 0.318053, 0.318758, 0.317343, 0.318747
LARGE_DATASET, 0.322591, 0.318389, 0.318167, 0.319139, 0.318157, 0.317609, 0.321534, 0.318218, 0.317470, 0.317696
LARGE_DATASET, 0.319310, 0.318940, 0.317663, 0.318908, 0.319206, 0.319697, 0.317891, 0.318208, 0.318456, 0.317759
LARGE_DATASET, 0.319084, 0.317900, 0.318068, 0.318308, 0.319520, 0.318095, 0.316934, 0.318395, 0.318743, 0.317574
LARGE_DATASET, 0.321967, 0.318436, 0.325816, 0.318510, 0.319662, 0.319829, 0.317625, 0.317752, 0.318773, 0.318882
LARGE_DATASET, 0.318834, 0.318966, 0.319158, 0.318606, 0.318090, 0.318387, 0.318530, 0.318823, 0.318658, 0.318429
LARGE_DATASET, 0.318196, 0.318104, 0.318739, 0.318146, 0.320483, 0.318889, 0.318253, 0.321952, 0.319412, 0.318025
LARGE_DATASET, 0.320518, 0.317329, 0.318849, 0.319660, 0.317760, 0.317464, 0.320348, 0.318229, 0.317114, 0.318971
EXTRALARGE_DATASET, 1.339832, 1.337604, 1.337826, 1.336462, 1.338416, 1.337183, 1.337571, 1.337226, 1.338195, 1.336403
EXTRALARGE_DATASET, 1.340593, 1.336799, 1.335747, 1.335521, 1.336837, 1.337702, 1.335350, 1.335932, 1.335897, 1.335425
EXTRALARGE_DATASET, 1.341587, 1.341496, 1.342188, 1.341932, 1.342880, 1.339662, 1.340631, 1.340611, 1.341812, 1.342195
EXTRALARGE_DATASET, 1.340638, 1.339393, 1.337662, 1.337045, 1.341969, 1.338056, 1.339373, 1.337378, 1.339340, 1.337511
EXTRALARGE_DATASET, 1.340662, 1.339047, 1.340619, 1.338117, 1.337765, 1.337765, 1.338838, 1.339580, 1.341871, 1.339158
EXTRALARGE_DATASET, 1.343864, 1.342969, 1.341666, 1.339248, 1.340909, 1.340027, 1.341388, 1.344265, 1.344452, 1.340509
EXTRALARGE_DATASET, 1.339955, 1.337175, 1.335656, 1.336008, 1.336110, 1.336546, 1.335958, 1.335924, 1.336484, 1.336999
EXTRALARGE_DATASET, 1.340975, 1.341551, 1.341802, 1.337678, 1.338141, 1.339041, 1.338877, 1.336767, 1.338823, 1.337901
EXTRALARGE_DATASET, 1.344449, 1.338567, 1.337704, 1.338150, 1.337999, 1.341761, 1.337877, 1.339080, 1.339420, 1.338234
EXTRALARGE_DATASET, 1.343365, 1.339349, 1.339847, 1.338399, 1.338006, 1.342746, 1.338578, 1.339624, 1.339096, 1.338415
