MINI_DATASET, 0.009816, 0.010089, 0.009978, 0.009825, 0.016139, 0.013920, 0.013683, 0.013665, 0.013860, 0.015559
MINI_DATASET, 0.009079, 0.009030, 0.009878, 0.009513, 0.008761, 0.008074, 0.008118, 0.008873, 0.008102, 0.007983
MINI_DATASET, 0.010246, 0.010358, 0.010319, 0.010420, 0.010128, 0.010168, 0.010262, 0.010396, 0.010554, 0.014258
MINI_DATASET, 0.010253, 0.009973, 0.010226, 0.010263, 0.013780, 0.018596, 0.017529, 0.018074, 0.010815, 0.010911
MINI_DATASET, 0.022403, 0.022315, 0.009238, 0.008551, 0.008191, 0.008010, 0.008784, 0.008254, 0.008333, 0.008233
MINI_DATASET, 0.010225, 0.010346, 0.010032, 0.010140, 0.010200, 0.010143, 0.010731, 0.010196, 0.014399, 0.009968
MINI_DATASET, 0.010027, 0.010064, 0.010021, 0.009974, 0.009866, 0.009948, 0.009721, 0.009873, 0.010180, 0.010078
MINI_DATASET, 0.010412, 0.010186, 0.010512, 0.010563, 0.010333, 0.010133, 0.009934, 0.009639, 0.009913, 0.009804
MINI_DATASET, 0.010259, 0.010625, 0.010587, 0.010595, 0.010627, 0.010400, 0.010339, 0.010910, 0.010335, 0.010447
MINI_DATASET, 0.010390, 0.010121, 0.010128, 0.010088, 0.009893, 0.009916, 0.009668, 0.009740, 0.010020, 0.009718
SMALL_DATASET, 0.041266, 0.037830, 0.040401, 0.039533, 0.036325, 0.036742, 0.036615, 0.047793, 0.024463, 0.025362
SMALL_DATASET, 0.023897, 0.023337, 0.023801, 0.023595, 0.023406, 0.024254, 0.023466, 0.023282, 0.023343, 0.023391
SMALL_DATASET, 0.021605, 0.023433, 0.023970, 0.023826, 0.023682, 0.023757, 0.023635, 0.023523, 0.023884, 0.023796
SMALL_DATASET, 0.022464, 0.021920, 0.021948, 0.021588, 0.023678, 0.023407, 0.023660, 0.023756, 0.023556, 0.023686
SMALL_DATASET, 0.023815, 0.023168, 0.023576, 0.023486, 0.022438, 0.022803, 0.023261, 0.023188, 0.022757, 0.023143
SMALL_DATASET, 0.022405, 0.021973, 0.021779, 0.023258, 0.023956, 0.023473, 0.023222, 0.023410, 0.023104, 0.023633
SMALL_DATASET, 0.023161, 0.022768, 0.022776, 0.024131, 0.024374, 0.023805, 0.023866, 0.023837, 0.024546, 0.024557
SMALL_DATASET, 0.022224, 0.022274, 0.022565, 0.023193, 0.023489, 0.023656, 0.023239, 0.023211, 0.023535, 0.023664
SMALL_DATASET, 0.026928, 0.030345, 0.023548, 0.023538, 0.023666, 0.023939, 0.023938, 0.023936, 0.023936, 0.024793
SMALL_DATASET, 0.026888, 0.030455, 0.023563, 0.023444, 0.023472, 0.024481, 0.023452, 0.023718, 0.024100, 0.023719
STANDARD_DATASET, 0.080291, 0.072714, 0.073654, 0.072603, 0.072076, 0.076047, 0.073710, 0.072556, 0.072206, 0.072493
STANDARD_DATASET, 0.065933, 0.073269, 0.077531, 0.072714, 0.074130, 0.072769, 0.073028, 0.076855, 0.098566, 0.072532
STANDARD_DATASET, 0.072951, 0.070531, 0.070709, 0.070487, 0.075292, 0.071621, 0.071422, 0.071311, 0.070186, 0.071000
STANDARD_DATASET, 0.072442, 0.071934, 0.071732, 0.071761, 0.071469, 0.071784, 0.076186, 0.072467, 0.072994, 0.071646
STANDARD_DATASET, 0.071161, 0.070664, 0.070708, 0.070562, 0.070838, 0.070378, 0.070955, 0.070203, 0.074449, 0.072070
STANDARD_DATASET, 0.070592, 0.070313, 0.072877, 0.072651, 0.072752, 0.073581, 0.072716, 0.072843, 0.072745, 0.072957
STANDARD_DATASET, 0.074533, 0.072519, 0.070558, 0.074496, 0.070596, 0.071088, 0.070379, 0.070176, 0.070546, 0.070629
STANDARD_DATASET, 0.071227, 0.092690, 0.078729, 0.070515, 0.070239, 0.074548, 0.071883, 0.070045, 0.070543, 0.070083
STANDARD_DATASET, 0.084366, 0.084810, 0.102448, 0.070655, 0.071087, 0.070252, 0.070524, 0.074648, 0.070648, 0.070150
STANDARD_DATASET, 0.070974, 0.070757, 0.070397, 0.070410, 0.074786, 0.069883, 0.070002, 0.070508, 0.070129, 0.074437
LARGE_DATASET, 0.302049, 0.291067, 0.295899, 0.297362, 0.302021, 0.298173, 0.297364, 0.297680, 0.301125, 0.298045
LARGE_DATASET, 0.298628, 0.299141, 0.298112, 0.302506, 0.298048, 0.301956, 0.299262, 0.298460, 0.293750, 0.302772
LARGE_DATASET, 0.303319, 0.289970, 0.299481, 0.299494, 0.299806, 0.300301, 0.303639, 0.301043, 0.300074, 0.300133
LARGE_DATASET, 0.294760, 0.297684, 0.297549, 0.300856, 0.297941, 0.297648, 0.299191, 0.303427, 0.299295, 0.296833
LARGE_DATASET, 0.304301, 0.296674, 0.299756, 0.300315, 0.302593, 0.302390, 0.298630, 0.297991, 0.301012, 0.301877
LARGE_DATASET, 0.297899, 0.301830, 0.301438, 0.297890, 0.297344, 0.301710, 0.300777, 0.298354, 0.298725, 0.297993
LARGE_DATASET, 0.297650, 0.298104, 0.301612, 0.301391, 0.297487, 0.298045, 0.297316, 0.301625, 0.297921, 0.299697
LARGE_DATASET, 0.305511, 0.299347, 0.297267, 0.302275, 0.300861, 0.297543, 0.298930, 0.297994, 0.300534, 0.298139
LARGE_DATASET, 0.305181, 0.291808, 0.297278, 0.299169, 0.299717, 0.304050, 0.299094, 0.299874, 0.301193, 0.299846
LARGE_DATASET, 0.296434, 0.297741, 0.300828, 0.297625, 0.298997, 0.302209, 0.298983, 0.300483, 0.302506, 0.298934
EXTRALARGE_DATASET, 1.172466, 1.164300, 1.167942, 1.165558, 1.164305, 1.171903, 1.163267, 1.172925, 1.165322, 1.163453
EXTRALARGE_DATASET, 1.166684, 1.166129, 1.163323, 1.165513, 1.170847, 1.166097, 1.163527, 1.169251, 1.162050, 1.172451
EXTRALARGE_DATASET, 1.171231, 1.170830, 1.164080, 1.171350, 1.167622, 1.163468, 1.170821, 1.169746, 1.162908, 1.169947
EXTRALARGE_DATASET, 1.164190, 1.166594, 1.163042, 1.165228, 1.160931, 1.167740, 1.163469, 1.161055, 1.165746, 1.165669
EXTRALARGE_DATASET, 1.165524, 1.161512, 1.164195, 1.161060, 1.162407, 1.162603, 1.161873, 1.165061, 1.159717, 1.166377
EXTRALARGE_DATASET, 1.163945, 1.164846, 1.162141, 1.161640, 1.166548, 1.165332, 1.164144, 1.165751, 1.162818, 1.162709
EXTRALARGE_DATASET, 1.165221, 1.165536, 1.166345, 1.165605, 1.162038, 1.172981, 1.168792, 1.170356, 1.166897, 1.164932
EXTRALARGE_DATASET, 1.166321, 1.167980, 1.162790, 1.164704, 1.162877, 1.165181, 1.167759, 1.163192, 1.166299, 1.164716
EXTRALARGE_DATASET, 1.168618, 1.162162, 1.162591, 1.164237, 1.159262, 1.167114, 1.159580, 1.164815, 1.161627, 1.164981
EXTRALARGE_DATASET, 1.168702, 1.164315, 1.167051, 1.163178, 1.167167, 1.164681, 1.162251, 1.165633, 1.168525, 1.170377
