MINI_DATASET, 0.001892, 0.001883, 0.001881, 0.001896, 0.001894, 0.001893, 0.001883, 0.001653, 0.001620, 0.001608
MINI_DATASET, 0.001424, 0.001425, 0.001416, 0.001433, 0.001421, 0.001434, 0.001441, 0.001433, 0.001420, 0.001422
MINI_DATASET, 0.003447, 0.001464, 0.001491, 0.001469, 0.001465, 0.001459, 0.001460, 0.001458, 0.001500, 0.001457
MINI_DATASET, 0.001437, 0.001433, 0.001425, 0.001442, 0.001430, 0.001446, 0.001439, 0.001422, 0.001435, 0.001428
MINI_DATASET, 0.001437, 0.001424, 0.001406, 0.001424, 0.001464, 0.001430, 0.001431, 0.001461, 0.001419, 0.001420
MINI_DATASET, 0.001428, 0.001424, 0.001420, 0.001464, 0.001467, 0.001435, 0.001488, 0.001430, 0.001422, 0.001427
MINI_DATASET, 0.001464, 0.001412, 0.001430, 0.001445, 0.001430, 0.001431, 0.001416, 0.001432, 0.001430, 0.001435
MINI_DATASET, 0.001425, 0.001432, 0.001421, 0.001432, 0.001424, 0.001429, 0.001431, 0.001430, 0.001436, 0.001432
MINI_DATASET, 0.001449, 0.001416, 0.001414, 0.001432, 0.001420, 0.001429, 0.001442, 0.001421, 0.001446, 0.001339
MINI_DATASET, 0.001331, 0.001506, 0.001351, 0.001346, 0.001337, 0.001330, 0.001321, 0.001328, 0.001331, 0.001330
SMALL_DATASET, 0.003647, 0.003639, 0.003651, 0.003630, 0.005440, 0.003668, 0.003666, 0.003639, 0.003649, 0.003705
SMALL_DATASET, 0.003436, 0.003450, 0.003426, 0.003451, 0.003449, 0.003442, 0.003449, 0.003430, 0.003467, 0.003434
SMALL_DATASET, 0.003436, 0.003439, 0.003461, 0.003479, 0.003481, 0.003429, 0.003419, 0.003428, 0.003422, 0.003472
SMALL_DATASET, 0.003431, 0.003436, 0.003435, 0.003451, 0.003444, 0.003434, 0.003432, 0.003457, 0.003435, 0.003460
SMALL_DATASET, 0.003433, 0.003452, 0.003437, 0.003431, 0.003427, 0.003473, 0.003461, 0.003424, 0.003420, 0.003444
SMALL_DATASET, 0.003446, 0.003431, 0.003436, 0.003441, 0.003422, 0.003455, 0.003439, 0.003455, 0.003456, 0.003450
SMALL_DATASET, 0.003487, 0.003441, 0.003443, 0.003421, 0.003432, 0.003454, 0.003425, 0.004093, 0.003441, 0.003491
SMALL_DATASET, 0.003495, 0.003495, 0.003483, 0.003479, 0.003515, 0.003477, 0.003475, 0.003498, 0.003485, 0.003481
SMALL_DATASET, 0.003456, 0.003448, 0.003465, 0.003434, 0.003477, 0.003439, 0.003442, 0.003465, 0.004356, 0.003440
SMALL_DATASET, 0.003457, 0.003445, 0.003483, 0.003455, 0.003451, 0.003433, 0.003441, 0.003450, 0.003468, 0.003421
STANDARD_DATASET, 0.022415, 0.021863, 0.022556, 0.022090, 0.021935, 0.022166, 0.022472, 0.026047, 0.022277, 0.021994
STANDARD_DATASET, 0.023139, 0.022359, 0.022978, 0.022099, 0.022945, 0.022198, 0.022962, 0.022565, 0.023000, 0.022264
STANDARD_DATASET, 0.022875, 0.029814, 0.023007, 0.022372, 0.022978, 0.022939, 0.023042, 0.022811, 0.023002, 0.022924
STANDARD_DATASET, 0.023054, 0.022248, 0.023034, 0.022210, 0.023002, 0.022183, 0.022937, 0.022722, 0.023005, 0.022027
STANDARD_DATASET, 0.022996, 0.021986, 0.023098, 0.022463, 0.023014, 0.022843, 0.023076, 0.022537, 0.023058, 0.022592
STANDARD_DATASET, 0.022894, 0.022545, 0.023004, 0.022161, 0.022878, 0.022993, 0.023002, 0.022127, 0.022932, 0.022589
STANDARD_DATASET, 0.023089, 0.022524, 0.023103, 0.022878, 0.023189, 0.022291, 0.023094, 0.022931, 0.023152, 0.022320
STANDARD_DATASET, 0.022958, 0.022168, 0.023013, 0.022996, 0.022965, 0.022581, 0.023020, 0.022423, 0.023033, 0.022946
STANDARD_DATASET, 0.022928, 0.022220, 0.022942, 0.022924, 0.023015, 0.022364, 0.022933, 0.022302, 0.022889, 0.022505
STANDARD_DATASET, 0.022935, 0.022639, 0.022924, 0.022335, 0.023014, 0.022786, 0.022939, 0.022121, 0.022965, 0.022497
LARGE_DATASET
LARGE_DATASET
LARGE_DATASET
LARGE_DATASET
LARGE_DATASET
LARGE_DATASET
LARGE_DATASET
LARGE_DATASET
LARGE_DATASET
LARGE_DATASET
EXTRALARGE_DATASET
EXTRALARGE_DATASET
EXTRALARGE_DATASET
EXTRALARGE_DATASET
EXTRALARGE_DATASET
EXTRALARGE_DATASET
EXTRALARGE_DATASET
EXTRALARGE_DATASET
EXTRALARGE_DATASET
EXTRALARGE_DATASET
