MINI_DATASET, 0.002084, 0.002086, 0.002065, 0.002076, 0.002094, 0.002088, 0.002155, 0.002108, 0.002311, 0.006958
MINI_DATASET, 0.002374, 0.002354, 0.002377, 0.002379, 0.002371, 0.002380, 0.002379, 0.002361, 0.002464, 0.002370
MINI_DATASET, 0.002362, 0.002328, 0.002357, 0.002303, 0.002329, 0.002354, 0.002348, 0.002327, 0.002415, 0.002320
MINI_DATASET, 0.002337, 0.002307, 0.002327, 0.002320, 0.002333, 0.002324, 0.002329, 0.002324, 0.002379, 0.002394
MINI_DATASET, 0.002425, 0.002359, 0.005122, 0.002375, 0.002365, 0.002365, 0.002367, 0.002414, 0.002351, 0.002359
MINI_DATASET, 0.002389, 0.002350, 0.002347, 0.002347, 0.002347, 0.002402, 0.002380, 0.002411, 0.006943, 0.002382
MINI_DATASET, 0.002409, 0.002339, 0.002342, 0.002355, 0.002364, 0.002362, 0.002395, 0.002422, 0.002385, 0.002344
MINI_DATASET, 0.002409, 0.002402, 0.002437, 0.002436, 0.002413, 0.002432, 0.002354, 0.002394, 0.002394, 0.002376
MINI_DATASET, 0.002412, 0.002423, 0.002395, 0.002429, 0.002415, 0.002402, 0.002444, 0.002413, 0.002417, 0.002455
MINI_DATASET, 0.002430, 0.003731, 0.002398, 0.002486, 0.002441, 0.002415, 0.002394, 0.002381, 0.002406, 0.002416
SMALL_DATASET, 0.008163, 0.008091, 0.008107, 0.008261, 0.008025, 0.008095, 0.008070, 0.008089, 0.008145, 0.007999
SMALL_DATASET, 0.008129, 0.008199, 0.008103, 0.008157, 0.008140, 0.008129, 0.008157, 0.008051, 0.008129, 0.008188
SMALL_DATASET, 0.008123, 0.008160, 0.008183, 0.008035, 0.008070, 0.008019, 0.008067, 0.008159, 0.008104, 0.008208
SMALL_DATASET, 0.008095, 0.008095, 0.008137, 0.008115, 0.008024, 0.008094, 0.008038, 0.008276, 0.008296, 0.007975
SMALL_DATASET, 0.008043, 0.008163, 0.008047, 0.008117, 0.008051, 0.008189, 0.007984, 0.007974, 0.008046, 0.008010
SMALL_DATASET, 0.008053, 0.008054, 0.008074, 0.008009, 0.008216, 0.008246, 0.008226, 0.008184, 0.008239, 0.008176
SMALL_DATASET, 0.008069, 0.008046, 0.008007, 0.008093, 0.007991, 0.008118, 0.008132, 0.008076, 0.008172, 0.008191
SMALL_DATASET, 0.008058, 0.007999, 0.008211, 0.008117, 0.008062, 0.008028, 0.008080, 0.008134, 0.008041, 0.008111
SMALL_DATASET, 0.008124, 0.008076, 0.008094, 0.008174, 0.008033, 0.008189, 0.008080, 0.008071, 0.008181, 0.008080
SMALL_DATASET, 0.008078, 0.008113, 0.008074, 0.008084, 0.007997, 0.008061, 0.008190, 0.008115, 0.008039, 0.008071
STANDARD_DATASET, 0.044193, 0.043636, 0.044551, 0.043667, 0.043568, 0.043303, 0.043740, 0.043505, 0.044218, 0.043925
STANDARD_DATASET, 0.043332, 0.043637, 0.043503, 0.043231, 0.043276, 0.044098, 0.043918, 0.042864, 0.044664, 0.043440
STANDARD_DATASET, 0.043367, 0.043732, 0.043107, 0.043969, 0.044296, 0.043362, 0.045368, 0.044030, 0.043905, 0.042978
STANDARD_DATASET, 0.044444, 0.043813, 0.043302, 0.043802, 0.043039, 0.043399, 0.043047, 0.043460, 0.045382, 0.043724
STANDARD_DATASET, 0.040336, 0.040302, 0.039842, 0.039938, 0.040192, 0.040302, 0.039805, 0.039628, 0.040677, 0.039847
STANDARD_DATASET, 0.044805, 0.043903, 0.043772, 0.044365, 0.044743, 0.043889, 0.044480, 0.043886, 0.043197, 0.043877
STANDARD_DATASET, 0.043470, 0.043067, 0.043487, 0.043450, 0.043431, 0.043818, 0.043199, 0.044613, 0.044248, 0.043130
STANDARD_DATASET, 0.044021, 0.042813, 0.043290, 0.043843, 0.042687, 0.042920, 0.043422, 0.043843, 0.043908, 0.043535
STANDARD_DATASET, 0.044043, 0.043585, 0.043923, 0.043165, 0.043493, 0.044279, 0.044858, 0.043115, 0.043230, 0.043555
STANDARD_DATASET, 0.043557, 0.043063, 0.042923, 0.043461, 0.043420, 0.043077, 0.044760, 0.044487, 0.044131, 0.043770
LARGE_DATASET
LARGE_DATASET
LARGE_DATASET
LARGE_DATASET
LARGE_DATASET
LARGE_DATASET
LARGE_DATASET
LARGE_DATASET
LARGE_DATASET
LARGE_DATASET
EXTRALARGE_DATASET
EXTRALARGE_DATASET
EXTRALARGE_DATASET
EXTRALARGE_DATASET
EXTRALARGE_DATASET
EXTRALARGE_DATASET
EXTRALARGE_DATASET
EXTRALARGE_DATASET
EXTRALARGE_DATASET
EXTRALARGE_DATASET
