MINI_DATASET, 0.001689, 0.001693, 0.001684, 0.001659, 0.001676, 0.001637, 0.001648, 0.001682, 0.001656, 0.001649
MINI_DATASET, 0.001728, 0.001691, 0.001741, 0.001737, 0.001687, 0.001711, 0.001700, 0.001696, 0.001700, 0.001698
MINI_DATASET, 0.001789, 0.001716, 0.001660, 0.001747, 0.006482, 0.001712, 0.001684, 0.001685, 0.001708, 0.001689
MINI_DATASET, 0.001822, 0.001768, 0.001802, 0.001765, 0.001781, 0.001785, 0.001767, 0.001761, 0.001756, 0.001784
MINI_DATASET, 0.001767, 0.001668, 0.001672, 0.004334, 0.001728, 0.001762, 0.001724, 0.001743, 0.001735, 0.001723
MINI_DATASET, 0.001763, 0.001673, 0.001643, 0.001636, 0.001614, 0.001659, 0.001630, 0.001657, 0.001657, 0.001688
MINI_DATASET, 0.001810, 0.001608, 0.001624, 0.001665, 0.001631, 0.001629, 0.001622, 0.001586, 0.001643, 0.001670
MINI_DATASET, 0.001741, 0.001777, 0.001710, 0.001670, 0.001675, 0.001691, 0.001694, 0.001662, 0.001660, 0.001688
MINI_DATASET, 0.001760, 0.001707, 0.001789, 0.017022, 0.001698, 0.001719, 0.001707, 0.001738, 0.001750, 0.001700
MINI_DATASET, 0.001844, 0.001735, 0.001710, 0.001723, 0.001797, 0.001762, 0.001727, 0.001712, 0.001743, 0.001703
SMALL_DATASET, 0.002920, 0.002882, 0.002869, 0.002832, 0.002874, 0.002852, 0.002877, 0.002860, 0.002861, 0.002875
SMALL_DATASET, 0.002992, 0.002852, 0.002774, 0.006719, 0.002932, 0.002887, 0.002918, 0.002880, 0.002941, 0.002915
SMALL_DATASET, 0.002982, 0.002688, 0.002818, 0.002785, 0.002774, 0.002808, 0.002873, 0.002840, 0.002797, 0.002665
SMALL_DATASET, 0.002899, 0.002886, 0.002829, 0.002862, 0.002863, 0.002854, 0.002860, 0.002841, 0.002817, 0.002871
SMALL_DATASET, 0.002978, 0.002726, 0.002854, 0.002829, 0.002836, 0.002828, 0.002845, 0.002851, 0.002849, 0.002816
SMALL_DATASET, 0.002867, 0.002703, 0.002820, 0.002784, 0.002812, 0.002819, 0.002771, 0.002814, 0.026352, 0.002948
SMALL_DATASET, 0.002848, 0.002695, 0.002707, 0.002767, 0.002681, 0.002709, 0.002682, 0.006814, 0.002795, 0.002820
SMALL_DATASET, 0.002929, 0.002829, 0.002795, 0.002740, 0.002976, 0.002782, 0.002763, 0.029512, 0.002872, 0.002897
SMALL_DATASET, 0.002965, 0.002881, 0.002856, 0.002905, 0.002860, 0.002912, 0.002903, 0.002864, 0.002910, 0.002873
SMALL_DATASET, 0.002980, 0.002840, 0.002842, 0.002834, 0.002865, 0.002841, 0.002861, 0.002871, 0.002815, 0.002865
STANDARD_DATASET, 0.022799, 0.022883, 0.022578, 0.022843, 0.022832, 0.022892, 0.022898, 0.022940, 0.022874, 0.022814
STANDARD_DATASET, 0.022255, 0.023028, 0.021689, 0.022957, 0.022039, 0.022825, 0.022961, 0.022870, 0.022946, 0.022891
STANDARD_DATASET, 0.023038, 0.022586, 0.029937, 0.023011, 0.022191, 0.022886, 0.021840, 0.022977, 0.021939, 0.022813
STANDARD_DATASET, 0.022872, 0.024138, 0.022058, 0.022932, 0.022059, 0.022895, 0.022085, 0.022984, 0.022756, 0.022837
STANDARD_DATASET, 0.023100, 0.023032, 0.022092, 0.022929, 0.023037, 0.022530, 0.021821, 0.021600, 0.022075, 0.022959
STANDARD_DATASET, 0.023029, 0.022786, 0.022776, 0.022918, 0.022083, 0.022916, 0.022050, 0.022997, 0.022841, 0.022864
STANDARD_DATASET, 0.021599, 0.023018, 0.022165, 0.022962, 0.023024, 0.022896, 0.022106, 0.023182, 0.022170, 0.022858
STANDARD_DATASET, 0.023612, 0.022952, 0.022117, 0.023011, 0.022106, 0.021503, 0.022169, 0.022977, 0.022138, 0.022936
STANDARD_DATASET, 0.022979, 0.022721, 0.027321, 0.022855, 0.022965, 0.022778, 0.022555, 0.022874, 0.022135, 0.022845
STANDARD_DATASET, 0.022888, 0.022884, 0.022034, 0.022946, 0.022181, 0.022869, 0.021977, 0.022873, 0.021973, 0.022822
LARGE_DATASET, 0.123358, 0.119052, 0.119626, 0.119159, 0.121602, 0.122344, 0.123395, 0.119039, 0.122040, 0.121866
LARGE_DATASET, 0.124147, 0.119326, 0.122660, 0.122264, 0.121434, 0.123265, 0.121924, 0.123227, 0.121439, 0.121298
LARGE_DATASET, 0.120916, 0.122663, 0.122881, 0.118849, 0.122178, 0.122708, 0.121448, 0.121594, 0.121677, 0.122365
LARGE_DATASET, 0.123498, 0.124686, 0.119962, 0.122561, 0.125334, 0.120990, 0.120599, 0.121447, 0.119307, 0.122535
LARGE_DATASET, 0.123576, 0.123435, 0.122232, 0.123272, 0.122365, 0.122760, 0.123440, 0.123391, 0.122428, 0.120485
LARGE_DATASET, 0.127048, 0.122246, 0.121859, 0.122780, 0.125855, 0.120383, 0.120484, 0.121226, 0.122310, 0.122693
LARGE_DATASET, 0.123376, 0.121185, 0.121592, 0.121332, 0.123569, 0.121832, 0.121746, 0.117124, 0.123338, 0.121511
LARGE_DATASET, 0.118284, 0.121532, 0.121352, 0.123022, 0.122523, 0.122501, 0.120382, 0.122968, 0.117559, 0.123180
LARGE_DATASET, 0.127962, 0.152803, 0.122009, 0.120862, 0.123898, 0.122185, 0.120996, 0.124634, 0.122702, 0.121408
LARGE_DATASET, 0.125600, 0.123658, 0.120795, 0.122634, 0.120003, 0.121473, 0.122366, 0.123570, 0.123192, 0.120832
EXTRALARGE_DATASET, 0.604105, 0.594289, 0.596306, 0.591927, 0.593641, 0.589515, 0.599205, 0.608779, 0.595761, 0.596485
EXTRALARGE_DATASET, 0.603302, 0.607927, 0.591536, 0.591724, 0.593677, 0.607183, 0.596553, 0.597950, 0.608601, 0.593767
EXTRALARGE_DATASET, 0.603519, 0.606846, 0.587302, 0.608786, 0.596509, 0.606777, 0.599075, 0.605570, 0.641453, 0.588038
EXTRALARGE_DATASET, 0.609997, 0.607893, 0.613031, 0.595167, 0.591980, 0.600714, 0.589700, 0.627493, 0.586199, 0.600112
EXTRALARGE_DATASET, 0.590188, 0.591594, 0.593836, 0.610119, 0.597327, 0.580470, 0.597542, 0.605470, 0.604626, 0.583991
EXTRALARGE_DATASET, 0.600295, 0.597889, 0.594162, 0.607454, 0.598461, 0.603883, 0.603579, 0.579495, 0.598589, 0.593197
EXTRALARGE_DATASET, 0.607325, 0.570811, 0.593394, 0.594223, 0.611622, 0.593887, 0.585339, 0.605942, 0.573514, 0.598706
EXTRALARGE_DATASET, 0.596115, 0.595665, 0.607602, 0.595859, 0.588130, 0.608293, 0.576318, 0.595557, 0.606868, 0.591399
EXTRALARGE_DATASET, 0.598705, 0.608598, 0.607451, 0.599923, 0.599246, 0.595343, 0.586883, 0.603794, 0.595514, 0.598572
EXTRALARGE_DATASET, 0.601673, 0.592036, 0.613070, 0.583916, 0.610136, 0.598954, 0.590638, 0.617403, 0.592875, 0.607656
