MINI_DATASET, 0.001662, 0.001681, 0.001738, 0.001725, 0.001675, 0.001634, 0.001684, 0.001938, 0.001889, 0.001890
MINI_DATASET, 0.001826, 0.001781, 0.001818, 0.001790, 0.001807, 0.001812, 0.001908, 0.001893, 0.001901, 0.001885
MINI_DATASET, 0.001923, 0.001898, 0.001901, 0.001886, 0.001935, 0.001883, 0.001959, 0.001917, 0.001916, 0.001902
MINI_DATASET, 0.001887, 0.001783, 0.001799, 0.001804, 0.001784, 0.001808, 0.001828, 0.001786, 0.001853, 0.001797
MINI_DATASET, 0.001895, 0.001907, 0.001879, 0.001911, 0.001913, 0.001893, 0.001929, 0.001876, 0.001961, 0.001896
MINI_DATASET, 0.001964, 0.001915, 0.001885, 0.001916, 0.001907, 0.001910, 0.001926, 0.001896, 0.001980, 0.001932
MINI_DATASET, 0.001928, 0.001956, 0.001913, 0.001900, 0.001922, 0.001932, 0.001882, 0.001906, 0.001923, 0.001892
MINI_DATASET, 0.001945, 0.001903, 0.001981, 0.001930, 0.001967, 0.001898, 0.001910, 0.001921, 0.001900, 0.001931
MINI_DATASET, 0.001889, 0.001799, 0.001825, 0.001806, 0.001803, 0.001812, 0.001847, 0.001794, 0.001812, 0.001805
MINI_DATASET, 0.001801, 0.001816, 0.001823, 0.001804, 0.001825, 0.001822, 0.001775, 0.001898, 0.001878, 0.001800
SMALL_DATASET, 0.005996, 0.005969, 0.005908, 0.006231, 0.006120, 0.006044, 0.006083, 0.006091, 0.006155, 0.006113
SMALL_DATASET, 0.005981, 0.006140, 0.008757, 0.006119, 0.006138, 0.006151, 0.006153, 0.006166, 0.006274, 0.006126
SMALL_DATASET, 0.005929, 0.005930, 0.005931, 0.006043, 0.006074, 0.006120, 0.006125, 0.006097, 0.006099, 0.006122
SMALL_DATASET, 0.005995, 0.005949, 0.005899, 0.005898, 0.005941, 0.006084, 0.006094, 0.006105, 0.006102, 0.006139
SMALL_DATASET, 0.006363, 0.006080, 0.006069, 0.006143, 0.006063, 0.006202, 0.006053, 0.006140, 0.006101, 0.006075
SMALL_DATASET, 0.005926, 0.005921, 0.005901, 0.005931, 0.005958, 0.005906, 0.006078, 0.006093, 0.006098, 0.006110
SMALL_DATASET, 0.006299, 0.006132, 0.006125, 0.006180, 0.006102, 0.006078, 0.006101, 0.006080, 0.006148, 0.006104
SMALL_DATASET, 0.006360, 0.006054, 0.006083, 0.006054, 0.006079, 0.006060, 0.006042, 0.006094, 0.006216, 0.006125
SMALL_DATASET, 0.005943, 0.006296, 0.006078, 0.006117, 0.006090, 0.006121, 0.006087, 0.006119, 0.006068, 0.006148
SMALL_DATASET, 0.006312, 0.006105, 0.006075, 0.006095, 0.006021, 0.006183, 0.006073, 0.006051, 0.006083, 0.006103
STANDARD_DATASET, 0.035050, 0.035403, 0.035734, 0.035163, 0.035219, 0.034914, 0.035155, 0.035359, 0.036587, 0.035349
STANDARD_DATASET, 0.043517, 0.042194, 0.043370, 0.042955, 0.044297, 0.042100, 0.042665, 0.045037, 0.042746, 0.042161
STANDARD_DATASET, 0.043646, 0.041500, 0.042692, 0.041382, 0.041804, 0.042088, 0.042121, 0.041548, 0.042735, 0.041779
STANDARD_DATASET, 0.041381, 0.042746, 0.041337, 0.041786, 0.041249, 0.042605, 0.042137, 0.042199, 0.041812, 0.042194
STANDARD_DATASET, 0.044314, 0.045090, 0.042455, 0.042392, 0.043274, 0.044108, 0.041829, 0.042072, 0.042876, 0.042649
STANDARD_DATASET, 0.039696, 0.039248, 0.039786, 0.040984, 0.039243, 0.040157, 0.039524, 0.041096, 0.039747, 0.039590
STANDARD_DATASET, 0.043729, 0.044873, 0.042840, 0.041554, 0.041906, 0.043097, 0.042723, 0.042870, 0.043081, 0.042531
STANDARD_DATASET, 0.043562, 0.041567, 0.041255, 0.042536, 0.042298, 0.041086, 0.041914, 0.041724, 0.041656, 0.043343
STANDARD_DATASET, 0.044119, 0.043589, 0.041606, 0.041752, 0.041582, 0.042539, 0.042560, 0.042817, 0.042164, 0.043353
STANDARD_DATASET, 0.036589, 0.036273, 0.036571, 0.036976, 0.036443, 0.037017, 0.036474, 0.036659, 0.037236, 0.036091
