MINI_DATASET, 0.001943, 0.001999, 0.002044, 0.002063, 0.002036, 0.001978, 0.002066, 0.002217, 0.002020, 0.002080
MINI_DATASET, 0.002118, 0.002053, 0.002075, 0.002018, 0.002078, 0.002029, 0.001991, 0.002051, 0.001963, 0.002025
MINI_DATASET, 0.002070, 0.002045, 0.002117, 0.002085, 0.002064, 0.002037, 0.002052, 0.002035, 0.002022, 0.002003
MINI_DATASET, 0.001988, 0.001971, 0.002114, 0.002052, 0.001997, 0.002048, 0.002191, 0.002071, 0.002141, 0.002060
MINI_DATASET, 0.001968, 0.001944, 0.002055, 0.001944, 0.002010, 0.002032, 0.001993, 0.002204, 0.001973, 0.002098
MINI_DATASET, 0.002038, 0.002029, 0.002018, 0.002053, 0.001978, 0.002003, 0.002006, 0.002073, 0.002015, 0.002051
MINI_DATASET, 0.001949, 0.001922, 0.002056, 0.002003, 0.001964, 0.002107, 0.001981, 0.002031, 0.002026, 0.002051
MINI_DATASET, 0.001964, 0.001983, 0.002059, 0.001996, 0.002088, 0.002023, 0.001991, 0.002047, 0.001975, 0.001969
MINI_DATASET, 0.002092, 0.001996, 0.001972, 0.002022, 0.002067, 0.001981, 0.001975, 0.001974, 0.002005, 0.002082
MINI_DATASET, 0.001979, 0.001948, 0.002038, 0.001999, 0.002024, 0.002086, 0.001971, 0.002073, 0.002004, 0.002019
SMALL_DATASET, 0.006703, 0.006656, 0.006508, 0.006722, 0.006578, 0.006695, 0.006544, 0.006784, 0.006501, 0.006781
SMALL_DATASET, 0.006623, 0.006495, 0.006658, 0.006497, 0.006713, 0.006541, 0.006692, 0.006446, 0.006673, 0.006426
SMALL_DATASET, 0.006692, 0.006720, 0.006588, 0.006679, 0.006556, 0.006744, 0.006601, 0.006915, 0.006587, 0.006748
SMALL_DATASET, 0.006730, 0.006571, 0.006717, 0.006567, 0.006704, 0.006554, 0.006693, 0.006520, 0.006619, 0.006606
SMALL_DATASET, 0.006576, 0.006820, 0.006582, 0.006797, 0.006620, 0.006767, 0.006583, 0.006884, 0.006573, 0.006819
SMALL_DATASET, 0.006817, 0.006686, 0.006766, 0.006608, 0.006740, 0.006589, 0.006746, 0.006600, 0.006655, 0.006745
SMALL_DATASET, 0.006633, 0.006698, 0.006536, 0.006783, 0.006528, 0.006688, 0.006550, 0.006700, 0.006564, 0.006824
SMALL_DATASET, 0.006850, 0.006534, 0.006732, 0.006563, 0.006768, 0.006537, 0.006722, 0.006678, 0.006725, 0.006595
SMALL_DATASET, 0.006675, 0.006753, 0.006682, 0.006747, 0.006504, 0.006758, 0.006618, 0.006673, 0.006600, 0.006786
SMALL_DATASET, 0.006820, 0.006599, 0.006783, 0.006542, 0.006750, 0.006591, 0.006732, 0.006543, 0.006762, 0.006630
STANDARD_DATASET, 0.030436, 0.029904, 0.030155, 0.029707, 0.030018, 0.029913, 0.029999, 0.029829, 0.030325, 0.029836
STANDARD_DATASET, 0.029911, 0.030286, 0.029945, 0.030214, 0.029757, 0.030019, 0.029697, 0.030263, 0.029805, 0.029946
STANDARD_DATASET, 0.030309, 0.029950, 0.030340, 0.030104, 0.030157, 0.030167, 0.029937, 0.029878, 0.030392, 0.030099
STANDARD_DATASET, 0.030315, 0.030385, 0.029780, 0.029680, 0.029973, 0.029722, 0.029845, 0.029773, 0.030051, 0.029848
STANDARD_DATASET, 0.029950, 0.030394, 0.030213, 0.030049, 0.030396, 0.030018, 0.030352, 0.030123, 0.030524, 0.030069
STANDARD_DATASET, 0.030151, 0.029883, 0.030027, 0.030055, 0.029949, 0.030250, 0.030167, 0.030215, 0.030140, 0.029905
STANDARD_DATASET, 0.029722, 0.029952, 0.030266, 0.030149, 0.030445, 0.030010, 0.030201, 0.030202, 0.029884, 0.029997
STANDARD_DATASET, 0.029781, 0.030380, 0.030045, 0.030252, 0.030168, 0.030135, 0.030090, 0.030195, 0.030443, 0.029719
STANDARD_DATASET, 0.030222, 0.029943, 0.030381, 0.030037, 0.029817, 0.030132, 0.029932, 0.029796, 0.030008, 0.030647
STANDARD_DATASET, 0.030573, 0.029796, 0.030163, 0.030061, 0.030480, 0.030410, 0.030300, 0.030580, 0.030391, 0.030065
LARGE_DATASET, 0.122912, 0.120912, 0.121339, 0.122087, 0.121808, 0.122379, 0.120795, 0.124423, 0.121655, 0.120038
LARGE_DATASET, 0.122531, 0.121459, 0.122130, 0.122821, 0.122610, 0.122127, 0.122129, 0.121783, 0.121553, 0.122054
LARGE_DATASET, 0.121836, 0.122215, 0.122525, 0.121028, 0.121415, 0.120244, 0.120906, 0.122162, 0.121921, 0.119896
LARGE_DATASET, 0.122233, 0.120927, 0.120582, 0.122632, 0.123269, 0.121374, 0.120867, 0.124661, 0.122377, 0.122141
LARGE_DATASET, 0.122774, 0.121393, 0.122190, 0.121966, 0.122169, 0.122277, 0.122215, 0.123417, 0.122101, 0.121615
LARGE_DATASET, 0.123661, 0.122450, 0.121646, 0.120913, 0.121495, 0.122598, 0.121882, 0.121399, 0.121660, 0.120363
LARGE_DATASET, 0.122144, 0.121243, 0.122339, 0.120760, 0.123151, 0.122569, 0.123357, 0.122761, 0.123225, 0.123004
LARGE_DATASET, 0.122313, 0.122113, 0.122298, 0.121701, 0.124866, 0.120807, 0.120057, 0.123289, 0.121162, 0.121757
LARGE_DATASET, 0.123400, 0.122587, 0.122664, 0.122798, 0.122881, 0.124130, 0.123990, 0.123830, 0.122782, 0.121456
LARGE_DATASET, 0.122803, 0.124179, 0.123139, 0.121961, 0.121668, 0.121703, 0.121961, 0.123072, 0.121762, 0.122017
EXTRALARGE_DATASET, 0.494216, 0.498506, 0.491874, 0.492336, 0.492476, 0.491574, 0.491161, 0.493839, 0.486281, 0.492429
EXTRALARGE_DATASET, 0.496478, 0.494314, 0.488839, 0.495073, 0.495605, 0.490490, 0.498061, 0.488329, 0.486615, 0.496045
EXTRALARGE_DATASET, 0.490843, 0.498593, 0.498145, 0.489530, 0.496589, 0.500928, 0.494960, 0.492960, 0.493114, 0.493654
EXTRALARGE_DATASET, 0.486771, 0.490514, 0.494257, 0.498301, 0.490240, 0.492421, 0.494397, 0.491328, 0.495631, 0.492047
EXTRALARGE_DATASET, 0.486977, 0.493290, 0.484999, 0.497932, 0.492777, 0.494087, 0.490752, 0.498326, 0.496317, 0.492554
EXTRALARGE_DATASET, 0.496093, 0.491268, 0.494609, 0.492603, 0.494671, 0.488953, 0.500781, 0.497024, 0.496413, 0.493852
EXTRALARGE_DATASET, 0.489213, 0.499009, 0.496624, 0.495089, 0.497392, 0.490704, 0.495181, 0.496375, 0.495878, 0.491215
EXTRALARGE_DATASET, 0.498741, 0.490687, 0.500384, 0.488973, 0.486366, 0.496381, 0.490410, 0.492445, 0.492177, 0.492814
EXTRALARGE_DATASET, 0.488960, 0.496444, 0.489965, 0.490301, 0.497187, 0.490370, 0.491036, 0.493914, 0.493100, 0.492734
EXTRALARGE_DATASET, 0.496837, 0.497853, 0.496630, 0.490123, 0.491957, 0.495288, 0.489735, 0.495892, 0.490256, 0.491800
