MINI_DATASET, 0.002130, 0.002242, 0.002289, 0.002257, 0.002033, 0.002116, 0.002092, 0.002073, 0.002093, 0.002087
MINI_DATASET, 0.002039, 0.002014, 0.001939, 0.002025, 0.002138, 0.001941, 0.002157, 0.002053, 0.002111, 0.002055
MINI_DATASET, 0.002063, 0.002043, 0.002035, 0.001871, 0.002170, 0.002257, 0.002576, 0.002174, 0.002034, 0.002152
MINI_DATASET, 0.002057, 0.002045, 0.002053, 0.002040, 0.001920, 0.002041, 0.002073, 0.002019, 0.002102, 0.002034
MINI_DATASET, 0.001916, 0.002064, 0.001914, 0.002033, 0.001997, 0.002103, 0.002026, 0.002056, 0.002110, 0.001934
MINI_DATASET, 0.001974, 0.002049, 0.002066, 0.002032, 0.002076, 0.002104, 0.002052, 0.001995, 0.002112, 0.001965
MINI_DATASET, 0.008764, 0.002030, 0.002064, 0.002039, 0.002052, 0.002121, 0.002014, 0.002117, 0.002047, 0.002157
MINI_DATASET, 0.002064, 0.002054, 0.002026, 0.002068, 0.002079, 0.002015, 0.002032, 0.002107, 0.002075, 0.002105
MINI_DATASET, 0.002064, 0.002014, 0.002045, 0.002074, 0.002038, 0.002050, 0.002111, 0.002160, 0.002107, 0.002028
MINI_DATASET, 0.001968, 0.002072, 0.002080, 0.002036, 0.001891, 0.002012, 0.001941, 0.001904, 0.002045, 0.002093
SMALL_DATASET, 0.006774, 0.006927, 0.006899, 0.006915, 0.006869, 0.006833, 0.007133, 0.007268, 0.006891, 0.006849
SMALL_DATASET, 0.006762, 0.006777, 0.006771, 0.006738, 0.006779, 0.007206, 0.006949, 0.006833, 0.006802, 0.006773
SMALL_DATASET, 0.006851, 0.007112, 0.006866, 0.006894, 0.006819, 0.007293, 0.006797, 0.006872, 0.006910, 0.006854
SMALL_DATASET, 0.006703, 0.007179, 0.006838, 0.006829, 0.007098, 0.006831, 0.006961, 0.006823, 0.006926, 0.007407
SMALL_DATASET, 0.006758, 0.006940, 0.006832, 0.006867, 0.006907, 0.006881, 0.006816, 0.006922, 0.006773, 0.006864
SMALL_DATASET, 0.006884, 0.006869, 0.007693, 0.006696, 0.007057, 0.006836, 0.006887, 0.006812, 0.006882, 0.006874
SMALL_DATASET, 0.006844, 0.006827, 0.006908, 0.007080, 0.006934, 0.006912, 0.006871, 0.006893, 0.006770, 0.006999
SMALL_DATASET, 0.006761, 0.006893, 0.006846, 0.007038, 0.006915, 0.006915, 0.006853, 0.006980, 0.006814, 0.006884
SMALL_DATASET, 0.006802, 0.006948, 0.006899, 0.006995, 0.006870, 0.006844, 0.006934, 0.006887, 0.007070, 0.006869
SMALL_DATASET, 0.006827, 0.007042, 0.006855, 0.006851, 0.006854, 0.006944, 0.006897, 0.006880, 0.006986, 0.006816
STANDARD_DATASET, 0.030521, 0.030350, 0.031281, 0.031757, 0.031839, 0.032018, 0.031633, 0.031095, 0.031285, 0.031830
STANDARD_DATASET, 0.031025, 0.030907, 0.030918, 0.031658, 0.030747, 0.031131, 0.031686, 0.031455, 0.031397, 0.031328
STANDARD_DATASET, 0.030944, 0.032163, 0.031291, 0.030554, 0.031167, 0.033151, 0.031844, 0.031478, 0.031992, 0.031578
STANDARD_DATASET, 0.030888, 0.031271, 0.030889, 0.030934, 0.031808, 0.031533, 0.032159, 0.031755, 0.031738, 0.031921
STANDARD_DATASET, 0.030519, 0.030534, 0.031662, 0.031725, 0.030291, 0.030450, 0.031809, 0.031556, 0.031420, 0.031609
STANDARD_DATASET, 0.030911, 0.030378, 0.031336, 0.031709, 0.031486, 0.031648, 0.031188, 0.031518, 0.031366, 0.031837
STANDARD_DATASET, 0.030641, 0.031022, 0.031105, 0.031195, 0.031441, 0.031818, 0.031389, 0.031749, 0.031323, 0.031315
STANDARD_DATASET, 0.031025, 0.030631, 0.035683, 0.031409, 0.031887, 0.031455, 0.031486, 0.031893, 0.031811, 0.031508
STANDARD_DATASET, 0.030343, 0.030706, 0.031295, 0.031189, 0.031218, 0.031949, 0.031986, 0.031493, 0.031338, 0.031541
STANDARD_DATASET, 0.030374, 0.030954, 0.030439, 0.031729, 0.032400, 0.031707, 0.031853, 0.032028, 0.032150, 0.032119
LARGE_DATASET, 0.124048, 0.122432, 0.122747, 0.122782, 0.122963, 0.123184, 0.122437, 0.123347, 0.124394, 0.122992
LARGE_DATASET, 0.122781, 0.120921, 0.122106, 0.123841, 0.122222, 0.121950, 0.121628, 0.121500, 0.121797, 0.123251
LARGE_DATASET, 0.122825, 0.122352, 0.121945, 0.122597, 0.121872, 0.122923, 0.123007, 0.122989, 0.121880, 0.121534
LARGE_DATASET, 0.123055, 0.122383, 0.121371, 0.121813, 0.121454, 0.122246, 0.122270, 0.122552, 0.122749, 0.122801
LARGE_DATASET, 0.121081, 0.122390, 0.122981, 0.124355, 0.122045, 0.123092, 0.123697, 0.121910, 0.122124, 0.122600
LARGE_DATASET, 0.122804, 0.123232, 0.121056, 0.121628, 0.123587, 0.122714, 0.122945, 0.121082, 0.121284, 0.121698
LARGE_DATASET, 0.123073, 0.122129, 0.123193, 0.122254, 0.122259, 0.122864, 0.122194, 0.123652, 0.124390, 0.122459
LARGE_DATASET, 0.121592, 0.120879, 0.121919, 0.121708, 0.122755, 0.123681, 0.121941, 0.121214, 0.121797, 0.121504
LARGE_DATASET, 0.122643, 0.122520, 0.124043, 0.121415, 0.121688, 0.124250, 0.124695, 0.122393, 0.123004, 0.122175
LARGE_DATASET, 0.123425, 0.121949, 0.122117, 0.124840, 0.123710, 0.122261, 0.123938, 0.121940, 0.123129, 0.122610
EXTRALARGE_DATASET, 0.484760, 0.492834, 0.490251, 0.492765, 0.492536, 0.492916, 0.490920, 0.493401, 0.491599, 0.488854
EXTRALARGE_DATASET, 0.490038, 0.489839, 0.489476, 0.500009, 0.490968, 0.488884, 0.487346, 0.491222, 0.490347, 0.487510
EXTRALARGE_DATASET, 0.491091, 0.493900, 0.493085, 0.491123, 0.489479, 0.491346, 0.491125, 0.491715, 0.493737, 0.487093
EXTRALARGE_DATASET, 0.489823, 0.490899, 0.493337, 0.489580, 0.488944, 0.490081, 0.494935, 0.492372, 0.492370, 0.488889
EXTRALARGE_DATASET, 0.490911, 0.492306, 0.492648, 0.495371, 0.493878, 0.491021, 0.493450, 0.492137, 0.493422, 0.493433
EXTRALARGE_DATASET, 0.492683, 0.495736, 0.492848, 0.493455, 0.493628, 0.488863, 0.494184, 0.496444, 0.491134, 0.496286
EXTRALARGE_DATASET, 0.496674, 0.496998, 0.493963, 0.492697, 0.494329, 0.495283, 0.487343, 0.489876, 0.492433, 0.493660
EXTRALARGE_DATASET, 0.496520, 0.495462, 0.493222, 0.503066, 0.495638, 0.492314, 0.489784, 0.493424, 0.490455, 0.487792
EXTRALARGE_DATASET, 0.490194, 0.488372, 0.491272, 0.490048, 0.489050, 0.492350, 0.488816, 0.490165, 0.490452, 0.492689
EXTRALARGE_DATASET, 0.490760, 0.487503, 0.494598, 0.490194, 0.489017, 0.491338, 0.493736, 0.492706, 0.492572, 0.493293
