MINI_DATASET, 0.007773, 0.008843, 0.008020, 0.007719, 0.007596, 0.007188, 0.007769, 0.006987, 0.007044, 0.007014
MINI_DATASET, 0.008046, 0.008624, 0.007422, 0.007321, 0.007188, 0.006949, 0.006890, 0.006961, 0.006968, 0.006919
MINI_DATASET, 0.007805, 0.007774, 0.007995, 0.007386, 0.007182, 0.006877, 0.006940, 0.006828, 0.006922, 0.006876
MINI_DATASET, 0.007701, 0.007713, 0.007717, 0.007230, 0.007130, 0.007083, 0.006907, 0.006882, 0.006972, 0.007008
MINI_DATASET, 0.008031, 0.007813, 0.008390, 0.007355, 0.007163, 0.007221, 0.007111, 0.007338, 0.007127, 0.006988
MINI_DATASET, 0.007687, 0.007719, 0.008134, 0.007553, 0.007490, 0.007285, 0.007216, 0.007388, 0.007439, 0.007312
MINI_DATASET, 0.007874, 0.008658, 0.007369, 0.007400, 0.007329, 0.007180, 0.007095, 0.007107, 0.007045, 0.007136
MINI_DATASET, 0.007781, 0.007823, 0.008089, 0.007154, 0.007100, 0.006883, 0.006913, 0.006896, 0.006732, 0.007337
MINI_DATASET, 0.007822, 0.008491, 0.007406, 0.007107, 0.007002, 0.006860, 0.006715, 0.006774, 0.006953, 0.006908
MINI_DATASET, 0.007765, 0.008078, 0.008591, 0.007539, 0.007196, 0.006837, 0.007009, 0.006787, 0.006820, 0.007016
SMALL_DATASET, 0.018755, 0.025115, 0.023869, 0.023616, 0.022496, 0.022118, 0.022195, 0.022379, 0.022398, 0.022090
SMALL_DATASET, 0.019069, 0.018772, 0.024581, 0.022276, 0.022094, 0.021788, 0.022070, 0.022024, 0.021689, 0.021978
SMALL_DATASET, 0.018818, 0.018795, 0.023795, 0.022539, 0.022338, 0.022419, 0.022207, 0.023592, 0.022598, 0.022225
SMALL_DATASET, 0.018941, 0.023718, 0.022772, 0.022239, 0.022051, 0.021955, 0.022456, 0.022230, 0.022112, 0.021994
SMALL_DATASET, 0.018749, 0.018942, 0.018789, 0.023389, 0.023174, 0.022672, 0.022083, 0.021610, 0.022168, 0.021863
SMALL_DATASET, 0.018615, 0.018711, 0.023799, 0.022423, 0.021918, 0.021516, 0.023071, 0.022267, 0.021963, 0.021878
SMALL_DATASET, 0.018912, 0.019218, 0.018769, 0.022779, 0.021839, 0.021591, 0.021500, 0.021602, 0.021629, 0.021787
SMALL_DATASET, 0.019038, 0.019194, 0.023621, 0.022218, 0.021912, 0.021841, 0.021546, 0.021468, 0.021418, 0.021488
SMALL_DATASET, 0.019039, 0.023633, 0.022809, 0.022220, 0.021552, 0.021428, 0.021443, 0.022259, 0.021353, 0.021525
SMALL_DATASET, 0.018756, 0.023880, 0.022383, 0.022085, 0.021367, 0.021489, 0.021182, 0.021242, 0.021017, 0.021006
STANDARD_DATASET, 0.054474, 0.054238, 0.054004, 0.055161, 0.053994, 0.054049, 0.054013, 0.054306, 0.054371, 0.055530
STANDARD_DATASET, 0.055140, 0.055355, 0.055055, 0.055117, 0.054689, 0.054479, 0.054833, 0.054881, 0.054998, 0.054701
STANDARD_DATASET, 0.063982, 0.062311, 0.061175, 0.061177, 0.062254, 0.060867, 0.060822, 0.060855, 0.060763, 0.060542
STANDARD_DATASET, 0.054576, 0.054532, 0.054614, 0.053932, 0.054238, 0.055416, 0.054324, 0.054245, 0.054139, 0.053834
STANDARD_DATASET, 0.062895, 0.060878, 0.061666, 0.060670, 0.060332, 0.059854, 0.059899, 0.060670, 0.059996, 0.059876
STANDARD_DATASET, 0.054382, 0.054294, 0.053795, 0.053852, 0.054076, 0.054134, 0.053831, 0.054820, 0.053783, 0.053834
STANDARD_DATASET, 0.054391, 0.054237, 0.054225, 0.054294, 0.054413, 0.054330, 0.054315, 0.054808, 0.054339, 0.054224
STANDARD_DATASET, 0.062652, 0.061452, 0.059858, 0.059912, 0.059830, 0.059781, 0.059599, 0.061481, 0.060205, 0.059524
STANDARD_DATASET, 0.054542, 0.054888, 0.054287, 0.055536, 0.054080, 0.054404, 0.054400, 0.054460, 0.054500, 0.056286
STANDARD_DATASET, 0.054676, 0.054615, 0.053965, 0.054276, 0.054227, 0.054805, 0.054061, 0.054103, 0.054149, 0.054144
LARGE_DATASET, 0.316311, 0.311097, 0.310534, 0.312203, 0.312611, 0.310372, 0.311745, 0.310322, 0.311993, 0.310505
LARGE_DATASET, 0.311521, 0.311065, 0.310400, 0.310521, 0.311645, 0.320961, 0.310248, 0.311210, 0.310777, 0.310151
LARGE_DATASET, 0.310418, 0.311331, 0.311732, 0.310010, 0.310990, 0.310277, 0.310491, 0.309518, 0.310897, 0.311119
LARGE_DATASET, 0.311258, 0.310222, 0.309120, 0.311353, 0.310536, 0.311135, 0.310791, 0.309716, 0.309575, 0.310700
LARGE_DATASET, 0.312314, 0.309812, 0.311368, 0.311310, 0.310771, 0.311112, 0.312260, 0.311564, 0.311402, 0.312058
LARGE_DATASET, 0.310160, 0.311506, 0.311276, 0.311288, 0.311747, 0.310145, 0.309622, 0.311762, 0.311935, 0.310102
LARGE_DATASET, 0.311395, 0.311295, 0.310219, 0.310515, 0.311441, 0.310791, 0.310136, 0.310058, 0.309532, 0.311689
LARGE_DATASET, 0.312526, 0.311438, 0.311913, 0.310688, 0.310634, 0.312037, 0.311597, 0.310620, 0.312057, 0.311389
LARGE_DATASET, 0.314594, 0.311050, 0.312325, 0.312928, 0.311250, 0.312321, 0.310404, 0.311873, 0.311723, 0.312646
LARGE_DATASET, 0.312958, 0.311078, 0.311834, 0.311398, 0.312297, 0.311026, 0.312047, 0.312025, 0.310100, 0.310365
EXTRALARGE_DATASET, 1.332779, 1.327104, 1.325990, 1.327717, 1.328940, 1.327329, 1.327045, 1.338634, 1.326541, 1.326593
EXTRALARGE_DATASET, 1.330919, 1.325994, 1.326170, 1.324994, 1.324256, 1.324241, 1.324121, 1.324094, 1.327121, 1.324633
EXTRALARGE_DATASET, 1.325140, 1.327004, 1.324527, 1.325921, 1.324646, 1.327814, 1.323632, 1.323605, 1.323912, 1.325434
EXTRALARGE_DATASET, 1.325787, 1.322769, 1.322981, 1.324253, 1.325109, 1.322923, 1.324946, 1.323450, 1.326100, 1.323114
EXTRALARGE_DATASET, 1.334246, 1.329774, 1.329732, 1.328395, 1.332052, 1.326950, 1.330642, 1.330931, 1.327495, 1.327607
EXTRALARGE_DATASET, 1.326796, 1.325719, 1.325275, 1.338201, 1.325462, 1.325839, 1.325425, 1.328670, 1.329674, 1.324758
EXTRALARGE_DATASET, 1.329618, 1.328745, 1.329109, 1.327948, 1.328131, 1.334781, 1.331416, 1.325561, 1.333166, 1.330629
EXTRALARGE_DATASET, 1.330818, 1.328684, 1.325099, 1.326798, 1.329921, 1.330151, 1.327066, 1.324792, 1.328489, 1.324428
EXTRALARGE_DATASET, 1.331397, 1.328953, 1.331324, 1.333586, 1.330582, 1.331622, 1.329984, 1.331625, 1.332804, 1.329543
EXTRALARGE_DATASET, 1.330062, 1.328398, 1.328465, 1.327509, 1.330113, 1.330687, 1.330408, 1.326531, 1.327381, 1.340108
