MINI_DATASET, 0.001834, 0.001886, 0.001862, 0.001842, 0.001872, 0.001810, 0.001772, 0.001817, 0.001808, 0.001842
MINI_DATASET, 0.001828, 0.001901, 0.001906, 0.001902, 0.001843, 0.001827, 0.001815, 0.001837, 0.001828, 0.001865
MINI_DATASET, 0.001836, 0.001785, 0.001943, 0.001889, 0.001823, 0.001812, 0.001809, 0.001818, 0.002252, 0.001852
MINI_DATASET, 0.001800, 0.001959, 0.001871, 0.001850, 0.001795, 0.001830, 0.001879, 0.001832, 0.001831, 0.001841
MINI_DATASET, 0.001813, 0.001790, 0.001894, 0.001847, 0.001839, 0.001862, 0.001821, 0.001813, 0.001825, 0.001799
MINI_DATASET, 0.001791, 0.001827, 0.001964, 0.001871, 0.001827, 0.001877, 0.001826, 0.001847, 0.001826, 0.001872
MINI_DATASET, 0.001770, 0.001890, 0.001885, 0.001863, 0.001810, 0.001838, 0.001808, 0.001842, 0.001810, 0.001828
MINI_DATASET, 0.001806, 0.001795, 0.001906, 0.001865, 0.001820, 0.001813, 0.001798, 0.001859, 0.001849, 0.001815
MINI_DATASET, 0.001796, 0.001959, 0.001853, 0.001855, 0.001828, 0.001840, 0.001829, 0.001875, 0.001892, 0.001850
MINI_DATASET, 0.001781, 0.001760, 0.001924, 0.001829, 0.001819, 0.001857, 0.001813, 0.001805, 0.001870, 0.001915
SMALL_DATASET, 0.006482, 0.006449, 0.006433, 0.006329, 0.006350, 0.006344, 0.006400, 0.006515, 0.006334, 0.006490
SMALL_DATASET, 0.006483, 0.006489, 0.006328, 0.006324, 0.006287, 0.006464, 0.006361, 0.006507, 0.006286, 0.006386
SMALL_DATASET, 0.006315, 0.006372, 0.007147, 0.006390, 0.006444, 0.006294, 0.006461, 0.006357, 0.006448, 0.006438
SMALL_DATASET, 0.006414, 0.006371, 0.006317, 0.006880, 0.006334, 0.006487, 0.006424, 0.006509, 0.006280, 0.006512
SMALL_DATASET, 0.006525, 0.006239, 0.006349, 0.006238, 0.006380, 0.006349, 0.006455, 0.006369, 0.006397, 0.006529
SMALL_DATASET, 0.006377, 0.006313, 0.006334, 0.006371, 0.006315, 0.006347, 0.006299, 0.006382, 0.006269, 0.006374
SMALL_DATASET, 0.006501, 0.006380, 0.006374, 0.006414, 0.006294, 0.006413, 0.006373, 0.006498, 0.006359, 0.006377
SMALL_DATASET, 0.006317, 0.006507, 0.006337, 0.006375, 0.006331, 0.006387, 0.006344, 0.006423, 0.006356, 0.006417
SMALL_DATASET, 0.006491, 0.006236, 0.006298, 0.006176, 0.006283, 0.006273, 0.006504, 0.006385, 0.006381, 0.006288
SMALL_DATASET, 0.006454, 0.006484, 0.006329, 0.006404, 0.006359, 0.006342, 0.006339, 0.006337, 0.006399, 0.006415
STANDARD_DATASET, 0.029390, 0.029548, 0.029373, 0.029164, 0.029136, 0.029200, 0.029243, 0.029542, 0.029278, 0.029226
STANDARD_DATASET, 0.029692, 0.029095, 0.028984, 0.029122, 0.029011, 0.028997, 0.030331, 0.029109, 0.028912, 0.030045
STANDARD_DATASET, 0.029083, 0.029676, 0.029306, 0.029148, 0.029003, 0.029413, 0.029464, 0.029731, 0.029380, 0.029360
STANDARD_DATASET, 0.029478, 0.029028, 0.029811, 0.029141, 0.029192, 0.028994, 0.028990, 0.029220, 0.029126, 0.029322
STANDARD_DATASET, 0.029379, 0.029271, 0.029374, 0.029139, 0.029455, 0.029187, 0.029259, 0.029277, 0.029490, 0.029399
STANDARD_DATASET, 0.029239, 0.029288, 0.029351, 0.029469, 0.029608, 0.029382, 0.029402, 0.029344, 0.029357, 0.029551
STANDARD_DATASET, 0.029168, 0.029352, 0.029259, 0.030677, 0.029185, 0.029438, 0.029913, 0.029291, 0.029581, 0.029365
STANDARD_DATASET, 0.029300, 0.029572, 0.029178, 0.029354, 0.029477, 0.029281, 0.029119, 0.029490, 0.029238, 0.029241
STANDARD_DATASET, 0.029165, 0.029267, 0.029399, 0.029307, 0.029162, 0.029136, 0.029256, 0.029144, 0.029110, 0.029627
STANDARD_DATASET, 0.029175, 0.029112, 0.029290, 0.029271, 0.029025, 0.029142, 0.029830, 0.029281, 0.029225, 0.029084
LARGE_DATASET, 0.119089, 0.118991, 0.117773, 0.119045, 0.118021, 0.117582, 0.118282, 0.117976, 0.117672, 0.117572
LARGE_DATASET, 0.118948, 0.119958, 0.118127, 0.118234, 0.117810, 0.118362, 0.118149, 0.117205, 0.117565, 0.118481
LARGE_DATASET, 0.119896, 0.117970, 0.118294, 0.119204, 0.118554, 0.118263, 0.117791, 0.118385, 0.118539, 0.118247
LARGE_DATASET, 0.117951, 0.117402, 0.117748, 0.117454, 0.117288, 0.116854, 0.117643, 0.118169, 0.116867, 0.117807
LARGE_DATASET, 0.117837, 0.117546, 0.117507, 0.117796, 0.118755, 0.118699, 0.118101, 0.118194, 0.118324, 0.119390
LARGE_DATASET, 0.117757, 0.117928, 0.116561, 0.116951, 0.117284, 0.117882, 0.116917, 0.117567, 0.117205, 0.117914
LARGE_DATASET, 0.118263, 0.117277, 0.117062, 0.120025, 0.118353, 0.118369, 0.118851, 0.117707, 0.118679, 0.117751
LARGE_DATASET, 0.118354, 0.117510, 0.118946, 0.118269, 0.118194, 0.119187, 0.119284, 0.118781, 0.117832, 0.117541
LARGE_DATASET, 0.117789, 0.118340, 0.119250, 0.118087, 0.116381, 0.118460, 0.117900, 0.118450, 0.118484, 0.118028
LARGE_DATASET, 0.118466, 0.117298, 0.118953, 0.120287, 0.117683, 0.117798, 0.117443, 0.117246, 0.117657, 0.117707
EXTRALARGE_DATASET, 0.482462, 0.479606, 0.476867, 0.481802, 0.479525, 0.485078, 0.482517, 0.487997, 0.480332, 0.484226
EXTRALARGE_DATASET, 0.484006, 0.477367, 0.483989, 0.481277, 0.479297, 0.478391, 0.479750, 0.481441, 0.480693, 0.476724
EXTRALARGE_DATASET, 0.483191, 0.483446, 0.482341, 0.481008, 0.476611, 0.481712, 0.481935, 0.484075, 0.480413, 0.480352
EXTRALARGE_DATASET, 0.479193, 0.477920, 0.479596, 0.481342, 0.483572, 0.483309, 0.482212, 0.478956, 0.482474, 0.479280
EXTRALARGE_DATASET, 0.478885, 0.479438, 0.486650, 0.480911, 0.483175, 0.481993, 0.481677, 0.483334, 0.479012, 0.477089
EXTRALARGE_DATASET, 0.480776, 0.482756, 0.482582, 0.477912, 0.478771, 0.481108, 0.476370, 0.478814, 0.481432, 0.480297
EXTRALARGE_DATASET, 0.486933, 0.480357, 0.481194, 0.483088, 0.482893, 0.479311, 0.477983, 0.480150, 0.479976, 0.479964
EXTRALARGE_DATASET, 0.482564, 0.475438, 0.484655, 0.478766, 0.480447, 0.478604, 0.483343, 0.480215, 0.480133, 0.478031
EXTRALARGE_DATASET, 0.482316, 0.483214, 0.483261, 0.478893, 0.482377, 0.477312, 0.481137, 0.481887, 0.476238, 0.481080
EXTRALARGE_DATASET, 0.478196, 0.479445, 0.482323, 0.480811, 0.481474, 0.486758, 0.483123, 0.478596, 0.483234, 0.482215
