MINI_DATASET, 0.000905, 0.000855, 0.000833, 0.000831, 0.000825, 0.000826, 0.000820, 0.000824, 0.000831, 0.000825
MINI_DATASET, 0.000907, 0.000868, 0.000831, 0.003922, 0.000845, 0.000833, 0.000833, 0.000824, 0.000827, 0.000856
MINI_DATASET, 0.000899, 0.000872, 0.000908, 0.000859, 0.000860, 0.000918, 0.000929, 0.000893, 0.000923, 0.000928
MINI_DATASET, 0.000916, 0.000881, 0.000840, 0.000836, 0.000838, 0.000839, 0.000846, 0.000856, 0.000821, 0.000828
MINI_DATASET, 0.000911, 0.000856, 0.000876, 0.000916, 0.000875, 0.000870, 0.000869, 0.000872, 0.000890, 0.000867
MINI_DATASET, 0.000893, 0.000914, 0.000855, 0.000917, 0.000866, 0.000915, 0.000903, 0.000861, 0.000895, 0.000869
MINI_DATASET, 0.000905, 0.000866, 0.000858, 0.000875, 0.000943, 0.000871, 0.000936, 0.000863, 0.000880, 0.000868
MINI_DATASET, 0.000890, 0.000966, 0.000915, 0.000897, 0.000916, 0.000858, 0.000858, 0.000912, 0.000861, 0.000904
MINI_DATASET, 0.000911, 0.001022, 0.000847, 0.000820, 0.000828, 0.000829, 0.000820, 0.000825, 0.000831, 0.000834
MINI_DATASET, 0.000890, 0.000876, 0.000942, 0.000914, 0.001039, 0.000909, 0.000922, 0.000916, 0.000942, 0.000900
SMALL_DATASET, 0.001839, 0.001781, 0.001766, 0.001765, 0.001758, 0.001758, 0.001765, 0.001770, 0.001760, 0.001804
SMALL_DATASET, 0.001829, 0.001769, 0.001761, 0.001761, 0.001752, 0.001774, 0.001817, 0.001837, 0.005676, 0.001830
SMALL_DATASET, 0.001813, 0.001811, 0.001794, 0.001806, 0.001792, 0.001815, 0.001786, 0.001787, 0.001793, 0.001799
SMALL_DATASET, 0.001807, 0.001806, 0.001771, 0.001755, 0.001748, 0.001747, 0.001783, 0.001775, 0.001777, 0.001833
SMALL_DATASET, 0.001830, 0.001782, 0.001762, 0.001816, 0.001767, 0.001758, 0.001751, 0.001751, 0.001753, 0.001804
SMALL_DATASET, 0.001812, 0.001781, 0.001761, 0.001750, 0.001746, 0.001751, 0.001792, 0.001886, 0.001810, 0.001855
SMALL_DATASET, 0.001808, 0.001756, 0.001759, 0.001749, 0.004974, 0.001790, 0.001869, 0.001777, 0.001760, 0.001750
SMALL_DATASET, 0.001813, 0.001769, 0.001762, 0.001760, 0.001803, 0.001818, 0.001822, 0.001802, 0.001787, 0.001785
SMALL_DATASET, 0.001808, 0.001764, 0.001761, 0.001792, 0.001754, 0.001751, 0.001746, 0.001740, 0.001755, 0.001744
SMALL_DATASET, 0.001814, 0.001820, 0.001853, 0.001803, 0.001799, 0.001836, 0.001795, 0.001799, 0.001806, 0.001846
STANDARD_DATASET, 0.021115, 0.021103, 0.021100, 0.021230, 0.021214, 0.021204, 0.021127, 0.021142, 0.021143, 0.021258
STANDARD_DATASET, 0.021182, 0.021054, 0.021320, 0.021195, 0.021171, 0.021168, 0.021189, 0.021223, 0.021771, 0.021164
STANDARD_DATASET, 0.021214, 0.021176, 0.021209, 0.021148, 0.021321, 0.021237, 0.021235, 0.021265, 0.025216, 0.021209
STANDARD_DATASET, 0.021099, 0.021343, 0.021195, 0.021265, 0.021231, 0.021209, 0.021255, 0.021277, 0.021340, 0.021329
STANDARD_DATASET, 0.021271, 0.021229, 0.021453, 0.022181, 0.021264, 0.021267, 0.021199, 0.021184, 0.021205, 0.021188
STANDARD_DATASET, 0.021122, 0.022235, 0.021156, 0.021224, 0.021126, 0.021251, 0.021975, 0.021367, 0.021204, 0.021027
STANDARD_DATASET, 0.020945, 0.020991, 0.020934, 0.020929, 0.021122, 0.021007, 0.021055, 0.021008, 0.021198, 0.020991
STANDARD_DATASET, 0.020848, 0.020785, 0.020814, 0.020784, 0.021014, 0.021455, 0.020974, 0.020853, 0.020948, 0.021371
STANDARD_DATASET, 0.021208, 0.021322, 0.020888, 0.021387, 0.021885, 0.021116, 0.020836, 0.021348, 0.021231, 0.021244
STANDARD_DATASET, 0.021169, 0.021205, 0.021256, 0.020858, 0.021176, 0.021303, 0.021287, 0.021743, 0.021266, 0.021398
LARGE_DATASET, 0.116236, 0.119444, 0.118732, 0.118646, 0.116330, 0.119792, 0.120373, 0.117298, 0.117985, 0.116936
LARGE_DATASET, 0.113432, 0.116449, 0.118545, 0.113818, 0.118330, 0.117008, 0.119212, 0.118697, 0.116061, 0.117022
LARGE_DATASET, 0.117239, 0.118048, 0.119004, 0.117398, 0.115514, 0.117403, 0.119389, 0.117202, 0.116190, 0.117031
LARGE_DATASET, 0.119145, 0.118923, 0.117830, 0.117863, 0.121009, 0.118263, 0.115571, 0.119824, 0.118280, 0.120170
LARGE_DATASET, 0.116982, 0.118565, 0.120519, 0.119648, 0.115662, 0.118593, 0.118407, 0.118439, 0.116912, 0.116597
LARGE_DATASET, 0.117130, 0.115919, 0.116920, 0.117544, 0.116875, 0.117665, 0.117625, 0.116765, 0.117578, 0.116753
LARGE_DATASET, 0.118237, 0.117772, 0.119512, 0.118937, 0.117864, 0.118850, 0.118320, 0.118148, 0.118295, 0.117069
LARGE_DATASET, 0.115836, 0.117152, 0.116840, 0.117645, 0.119671, 0.117282, 0.115874, 0.119434, 0.118773, 0.119523
LARGE_DATASET, 0.118721, 0.116957, 0.118795, 0.118406, 0.117633, 0.115192, 0.117684, 0.117254, 0.121055, 0.116738
LARGE_DATASET, 0.117958, 0.120855, 0.117365, 0.117446, 0.119459, 0.117360, 0.119965, 0.117181, 0.120267, 0.117991
EXTRALARGE_DATASET, 0.593772, 0.576339, 0.582877, 0.581731, 0.594034, 0.574916, 0.585364, 0.585095, 0.584164, 0.574092
EXTRALARGE_DATASET, 0.577822, 0.586117, 0.581821, 0.587060, 0.577374, 0.587270, 0.577962, 0.598073, 0.589568, 0.594435
EXTRALARGE_DATASET, 0.589873, 0.588140, 0.583257, 0.586108, 0.585592, 0.572624, 0.577580, 0.581622, 0.577881, 0.577812
EXTRALARGE_DATASET, 0.586594, 0.576763, 0.595302, 0.575894, 0.582487, 0.584124, 0.585949, 0.574691, 0.580230, 0.588033
EXTRALARGE_DATASET, 0.582708, 0.592340, 0.584000, 0.585657, 0.584643, 0.593177, 0.587282, 0.581115, 0.588845, 0.589154
EXTRALARGE_DATASET, 0.579747, 0.575567, 0.578773, 0.584312, 0.580595, 0.577056, 0.573819, 0.589550, 0.572150, 0.568524
EXTRALARGE_DATASET, 0.591630, 0.581069, 0.576090, 0.577942, 0.584328, 0.572695, 0.586606, 0.575333, 0.581902, 0.579147
EXTRALARGE_DATASET, 0.587999, 0.581808, 0.578135, 0.586143, 0.577347, 0.585418, 0.576779, 0.590722, 0.586447, 0.594407
EXTRALARGE_DATASET, 0.581266, 0.575820, 0.583274, 0.589206, 0.576714, 0.571313, 0.582651, 0.564528, 0.582920, 0.604846
EXTRALARGE_DATASET, 0.586401, 0.574387, 0.576528, 0.583616, 0.585699, 0.581716, 0.580272, 0.586300, 0.576627, 0.587338
